gene	seqnames	start	end	width	strand	peak	start_position	end_position	feature_strand	insideFeature	distancetoFeature	shortestDistance	fromOverlappingOrNearest	entrezgene_id	tair_symbol	description	time	logFC	fdr	C	T
AT1G01620	chr1	227309	228500	1192	*	4	225665	227302	-	upstream	-7	7	NearestLocation	839235	PIP1C	TMP-B [Source:UniProtKB/TrEMBL;Acc:A0A178WIA6]	4	0.316	6.5e-07	240	294
AT1G01620	chr1	227309	228500	1192	*	4	225665	227302	-	upstream	-7	7	NearestLocation	839235	PIP1C	TMP-B [Source:UniProtKB/TrEMBL;Acc:A0A178WIA6]	8	0.416	8.94e-05	222	299
AT1G02065	chr1	364736	366003	1268	*	6	365209	367340	+	overlapStart	-473	473	NearestLocation	839275	SPL8	Squamosa promoter-binding-like protein 8 [Source:UniProtKB/Swiss-Prot;Acc:Q8GXL3]	8	-0.534	3.24e-05	38.7	26.2
AT1G02065	chr1	364736	366003	1268	*	6	365209	367340	+	overlapStart	-473	473	NearestLocation	839275	SPL8	Squamosa promoter-binding-like protein 8 [Source:UniProtKB/Swiss-Prot;Acc:Q8GXL3]	4	-0.589	1e-09	41.5	27.3
AT1G02065	chr1	364736	366003	1268	*	6	365209	367340	+	overlapStart	-473	473	NearestLocation	839275	SPL8	Squamosa promoter-binding-like protein 8 [Source:UniProtKB/Swiss-Prot;Acc:Q8GXL3]	2	-0.341	0.00151	35.7	27.4
AT1G02640	chr1	564400	565758	1359	*	7	564205	567769	+	inside	195	195	NearestLocation	837940	BXL2	Probable beta-D-xylosidase 2 [Source:UniProtKB/Swiss-Prot;Acc:Q94KD8]	2	0.279	0.0238	45.6	57.1
AT1G02640	chr1	564400	565758	1359	*	7	564205	567769	+	inside	195	195	NearestLocation	837940	BXL2	Probable beta-D-xylosidase 2 [Source:UniProtKB/Swiss-Prot;Acc:Q94KD8]	4	0.166	0.0313	22.8	25.7
AT1G06100	chr1	1850315	1850922	608	*	16	1851530	1853019	+	upstream	-1215	608	NearestLocation	837119		Delta-9 desaturase-like 2 protein [Source:UniProtKB/Swiss-Prot;Acc:Q9LND8]	8	1.26	0.0108	0.771	1.82
AT1G11130	chr1	3722604	3723124	521	*	22	3722857	3727450	+	overlapStart	-253	253	NearestLocation	837654	SUB	Leucine-rich repeat receptor-like protein kinase (Fragment) [Source:UniProtKB/TrEMBL;Acc:C0LGE3]	4	0.154	0.0235	22.6	25.1
AT1G11130	chr1	3722604	3723124	521	*	22	3722857	3727450	+	overlapStart	-253	253	NearestLocation	837654	SUB	Leucine-rich repeat receptor-like protein kinase (Fragment) [Source:UniProtKB/TrEMBL;Acc:C0LGE3]	8	0.165	0.041	25.1	27.8
AT1G14920	chr1	5148842	5149418	577	*	33	5149226	5151354	+	overlapStart	-384	192	NearestLocation	838057	GAI	DELLA protein GAI [Source:UniProtKB/Swiss-Prot;Acc:Q9LQT8]	4	0.133	0.0392	34.3	36.4
AT1G14920	chr1	5148842	5149418	577	*	33	5149226	5151354	+	overlapStart	-384	192	NearestLocation	838057	GAI	DELLA protein GAI [Source:UniProtKB/Swiss-Prot;Acc:Q9LQT8]	8	0.181	0.0263	34.5	38.8
AT1G15500	chr1	5325192	5325614	423	*	34	5326290	5328874	+	upstream	-1098	676	NearestLocation	838120	ATNTT2	ADP	2	0.26	0.00627	109	130
AT1G15500	chr1	5325192	5325614	423	*	34	5326290	5328874	+	upstream	-1098	676	NearestLocation	838120	ATNTT2	ADP	4	0.231	6.68e-05	112	131
AT1G19050	chr1	6579098	6579795	698	*	39	6577833	6579178	-	overlapStart	80	80	NearestLocation	838487	ARR7	At1g19050 [Source:UniProtKB/TrEMBL;Acc:Q2HIJ6]	4	-0.541	0.00342	14.1	9.01
AT1G19050	chr1	6579098	6579795	698	*	39	6577833	6579178	-	overlapStart	80	80	NearestLocation	838487	ARR7	At1g19050 [Source:UniProtKB/TrEMBL;Acc:Q2HIJ6]	8	-0.477	0.00389	14	9.93
AT1G20620	chr1	7142205	7142987	783	*	41	7143067	7146540	+	upstream	-862	80	NearestLocation	838651	CAT3	catalase 3 [Source:TAIR;Acc:AT1G20620]	8	0.254	0.000768	897	1070
AT1G20620	chr1	7142205	7142987	783	*	41	7143067	7146540	+	upstream	-862	80	NearestLocation	838651	CAT3	catalase 3 [Source:TAIR;Acc:AT1G20620]	2	0.245	0.0244	476	552
AT1G20620	chr1	7142205	7142987	783	*	41	7143067	7146540	+	upstream	-862	80	NearestLocation	838651	CAT3	catalase 3 [Source:TAIR;Acc:AT1G20620]	4	0.289	2.15e-07	744	923
AT1G21000	chr1	7336611	7337218	608	*	42	7337728	7339452	+	upstream	-1117	510	NearestLocation	838694		At1g21000/F9H16_1 [Source:UniProtKB/TrEMBL;Acc:Q93V70]	4	0.385	0.0229	5.35	7.07
AT1G21090	chr1	7384386	7384935	550	*	43	7384629	7386558	+	overlapStart	-243	243	NearestLocation	838705		At1g21090 [Source:UniProtKB/TrEMBL;Acc:Q0V805]	4	0.322	0.000106	33.2	40.7
AT1G21090	chr1	7384386	7384935	550	*	43	7384629	7386558	+	overlapStart	-243	243	NearestLocation	838705		At1g21090 [Source:UniProtKB/TrEMBL;Acc:Q0V805]	8	0.263	0.00263	34.3	40.7
AT1G21090	chr1	7384386	7384935	550	*	43	7384629	7386558	+	overlapStart	-243	243	NearestLocation	838705		At1g21090 [Source:UniProtKB/TrEMBL;Acc:Q0V805]	2	0.243	0.0375	30.8	35.4
AT1G21460	chr1	7514883	7515230	348	*	44	7511850	7513361	-	upstream	-1522	1522	NearestLocation	838744	SWEET1	Bidirectional sugar transporter SWEET1 [Source:UniProtKB/Swiss-Prot;Acc:Q8L9J7]	8	0.454	1.94e-05	167	226
AT1G21460	chr1	7514883	7515230	348	*	44	7511850	7513361	-	upstream	-1522	1522	NearestLocation	838744	SWEET1	Bidirectional sugar transporter SWEET1 [Source:UniProtKB/Swiss-Prot;Acc:Q8L9J7]	2	0.359	0.00167	154	191
AT1G21460	chr1	7514883	7515230	348	*	44	7511850	7513361	-	upstream	-1522	1522	NearestLocation	838744	SWEET1	Bidirectional sugar transporter SWEET1 [Source:UniProtKB/Swiss-Prot;Acc:Q8L9J7]	4	0.363	2.4e-06	181	228
AT1G22160	chr1	7822123	7822565	443	*	48	7823149	7823971	+	upstream	-1026	584	NearestLocation	838821		FCS-Like Zinc finger 5 [Source:UniProtKB/Swiss-Prot;Acc:Q8VY80]	8	0.283	0.0157	32.8	39.3
AT1G23000	chr1	8142841	8143790	950	*	50	8143404	8145070	+	overlapStart	-563	386	NearestLocation	838908		Heavy metal transport/detoxification superfamily protein [Source:TAIR;Acc:AT1G23000]	4	0.442	2.51e-05	12.5	17.6
AT1G23000	chr1	8142841	8143790	950	*	50	8143404	8145070	+	overlapStart	-563	386	NearestLocation	838908		Heavy metal transport/detoxification superfamily protein [Source:TAIR;Acc:AT1G23000]	8	0.649	2.15e-05	12.1	18
AT1G24260	chr1	8594860	8595993	1134	*	53	8593637	8596105	-	inside	1245	112	NearestLocation	839040	SEP3	At1g24260 [Source:UniProtKB/TrEMBL;Acc:B4F7R9]	8	0.175	0.0397	162	182
AT1G27210	chr1	9454533	9455554	1022	*	64	9455368	9458026	-	overlapEnd	3493	186	NearestLocation	839610		TORTIFOLIA1-like protein 4 [Source:UniProtKB/Swiss-Prot;Acc:Q93ZH1]	8	0.27	0.0073	11.3	13.4
AT1G28330	chr1	9935355	9936361	1007	*	66	9933884	9935271	-	upstream	-84	84	NearestLocation	839729	DYL1;DRM1	Dormancy-associated protein 1 [Source:UniProtKB/Swiss-Prot;Acc:B9DGG8]	8	0.847	1.94e-05	86.7	157
AT1G28330	chr1	9935355	9936361	1007	*	66	9933884	9935271	-	upstream	-84	84	NearestLocation	839729	DYL1;DRM1	Dormancy-associated protein 1 [Source:UniProtKB/Swiss-Prot;Acc:B9DGG8]	4	1.37	6.78e-13	30.7	85
AT1G28330	chr1	9935355	9936361	1007	*	66	9933884	9935271	-	upstream	-84	84	NearestLocation	839729	DYL1;DRM1	Dormancy-associated protein 1 [Source:UniProtKB/Swiss-Prot;Acc:B9DGG8]	2	0.556	0.0112	72.3	110
AT1G28440	chr1	10000079	10001073	995	*	69	9996824	10000447	+	overlapEnd	3255	368	Overlapping	839742	HSL1	Receptor-like protein kinase HSL1 [Source:UniProtKB/Swiss-Prot;Acc:Q9SGP2]	8	0.276	0.000966	52.6	63.1
AT1G28440	chr1	10000079	10001073	995	*	69	9996824	10000447	+	overlapEnd	3255	368	Overlapping	839742	HSL1	Receptor-like protein kinase HSL1 [Source:UniProtKB/Swiss-Prot;Acc:Q9SGP2]	4	0.18	0.00179	53.5	60.6
AT1G29660	chr1	10364988	10365445	458	*	72	10371839	10373766	+	upstream	-6851	6394	NearestLocation	839843		GDSL esterase/lipase At1g29660 [Source:UniProtKB/Swiss-Prot;Acc:Q9C7N5]	4	-0.657	0.000616	4.74	3.02
AT1G30330	chr1	10692718	10693524	807	*	74	10685822	10690838	-	upstream	-1880	1880	NearestLocation	839913	ARF6	Auxin response factor 6 [Source:UniProtKB/Swiss-Prot;Acc:Q9ZTX8]	4	0.132	0.0166	92.9	102
AT1G32240	chr1	11627989	11629653	1665	*	78	11625700	11630626	-	inside	2637	973	NearestLocation	840116	KAN2	Probable transcription factor KAN2 [Source:UniProtKB/Swiss-Prot;Acc:Q9C616]	4	0.227	0.0121	16.6	19.3
AT1G32240	chr1	11627989	11629653	1665	*	78	11625700	11630626	-	inside	2637	973	NearestLocation	840116	KAN2	Probable transcription factor KAN2 [Source:UniProtKB/Swiss-Prot;Acc:Q9C616]	8	0.255	0.0156	15.3	17.8
AT1G32240	chr1	11626129	11626912	784	*	77	11625700	11630626	-	inside	4497	429	NearestLocation	840116	KAN2	Probable transcription factor KAN2 [Source:UniProtKB/Swiss-Prot;Acc:Q9C616]	4	0.227	0.0121	16.6	19.3
AT1G32240	chr1	11626129	11626912	784	*	77	11625700	11630626	-	inside	4497	429	NearestLocation	840116	KAN2	Probable transcription factor KAN2 [Source:UniProtKB/Swiss-Prot;Acc:Q9C616]	8	0.255	0.0156	15.3	17.8
AT1G48330	chr1	17861664	17862966	1303	*	81	17863837	17864386	+	upstream	-2173	871	NearestLocation	841253		At1g48330 [Source:UniProtKB/TrEMBL;Acc:Q9SX67]	8	0.537	9.59e-05	39.9	56.5
AT1G52190	chr1	19432738	19433534	797	*	84	19434509	19438971	+	upstream	-1771	975	NearestLocation	841649		Protein NRT1/ PTR FAMILY 1.2 [Source:UniProtKB/Swiss-Prot;Acc:Q9M817]	4	-0.29	0.000279	31.6	25.9
AT1G52190	chr1	19432738	19433534	797	*	84	19434509	19438971	+	upstream	-1771	975	NearestLocation	841649		Protein NRT1/ PTR FAMILY 1.2 [Source:UniProtKB/Swiss-Prot;Acc:Q9M817]	8	-0.181	0.049	29.5	25.9
AT1G63480	chr1	23543202	23543870	669	*	97	23539557	23542137	-	upstream	-1065	1065	NearestLocation	842654		AT-hook motif nuclear-localized protein 12 [Source:UniProtKB/Swiss-Prot;Acc:Q8LPN5]	8	0.225	0.00788	27.9	32.1
AT1G63480	chr1	23543202	23543870	669	*	97	23539557	23542137	-	upstream	-1065	1065	NearestLocation	842654		AT-hook motif nuclear-localized protein 12 [Source:UniProtKB/Swiss-Prot;Acc:Q8LPN5]	4	0.196	0.0152	21.6	23.8
AT1G64450	chr1	23940870	23941526	657	*	98	23941598	23942846	-	downstream	1976	72	NearestLocation	842753		At1g64450 [Source:UniProtKB/TrEMBL;Acc:Q9SGW9]	2	0.416	0.000116	34.4	45
AT1G64450	chr1	23940870	23941526	657	*	98	23941598	23942846	-	downstream	1976	72	NearestLocation	842753		At1g64450 [Source:UniProtKB/TrEMBL;Acc:Q9SGW9]	4	0.449	2.86e-06	32.7	42.4
AT1G64450	chr1	23940870	23941526	657	*	98	23941598	23942846	-	downstream	1976	72	NearestLocation	842753		At1g64450 [Source:UniProtKB/TrEMBL;Acc:Q9SGW9]	8	0.48	4.66e-05	36.6	49.8
AT1G67360	chr1	25237896	25238344	449	*	102	25236811	25238216	-	overlapStart	320	128	NearestLocation	843057		REF/SRPP-like protein At1g67360 [Source:UniProtKB/Swiss-Prot;Acc:Q9FYF7]	4	0.342	3.46e-06	54.7	67.2
AT1G67360	chr1	25237896	25238344	449	*	102	25236811	25238216	-	overlapStart	320	128	NearestLocation	843057		REF/SRPP-like protein At1g67360 [Source:UniProtKB/Swiss-Prot;Acc:Q9FYF7]	2	0.22	0.0244	44.8	48.8
AT1G67360	chr1	25237896	25238344	449	*	102	25236811	25238216	-	overlapStart	320	128	NearestLocation	843057		REF/SRPP-like protein At1g67360 [Source:UniProtKB/Swiss-Prot;Acc:Q9FYF7]	8	0.587	4.99e-06	53.1	77.5
AT1G69120	chr1	25985744	25987161	1418	*	112	25982330	25986313	-	overlapStart	569	569	NearestLocation	843244	AP1	AP1 [Source:UniProtKB/TrEMBL;Acc:A0A178W846]	4	-0.144	0.0125	139	128
AT1G70710	chr1	26662850	26663406	557	*	118	26659132	26663010	-	overlapStart	160	160	NearestLocation	843408	ATGH9B1	Endoglucanase 8 [Source:UniProtKB/Swiss-Prot;Acc:Q9CAC1]	8	0.295	0.000235	94.8	116
AT1G70710	chr1	26662850	26663406	557	*	118	26659132	26663010	-	overlapStart	160	160	NearestLocation	843408	ATGH9B1	Endoglucanase 8 [Source:UniProtKB/Swiss-Prot;Acc:Q9CAC1]	4	0.175	0.0122	96.1	106
AT1G70710	chr1	26660055	26661910	1856	*	117	26659132	26663010	-	inside	2955	923	NearestLocation	843408	ATGH9B1	Endoglucanase 8 [Source:UniProtKB/Swiss-Prot;Acc:Q9CAC1]	8	0.295	0.000235	94.8	116
AT1G70710	chr1	26660055	26661910	1856	*	117	26659132	26663010	-	inside	2955	923	NearestLocation	843408	ATGH9B1	Endoglucanase 8 [Source:UniProtKB/Swiss-Prot;Acc:Q9CAC1]	4	0.175	0.0122	96.1	106
AT1G71960	chr1	27085383	27086006	624	*	124	27082394	27088248	-	inside	2865	2242	NearestLocation	843527	ABCG25	ABC transporter G family member 25 [Source:UniProtKB/Swiss-Prot;Acc:Q84TH5]	4	-0.335	0.00124	9.21	7.15
AT1G71960	chr1	27085383	27086006	624	*	124	27082394	27088248	-	inside	2865	2242	NearestLocation	843527	ABCG25	ABC transporter G family member 25 [Source:UniProtKB/Swiss-Prot;Acc:Q84TH5]	8	-0.548	0.000805	7.85	5.36
AT1G73120	chr1	27497680	27498454	775	*	127	27497186	27497950	-	overlapStart	270	270	NearestLocation	843643		At1g73120 [Source:UniProtKB/TrEMBL;Acc:Q9CAS9]	8	2.73	0.00121	0.242	1.81
AT1G76620	chr1	28753841	28754444	604	*	138	28756521	28759297	+	upstream	-2680	2077	NearestLocation	843995		At1g76620/F14G6_22 [Source:UniProtKB/TrEMBL;Acc:Q8W4R7]	8	-0.226	0.024	16.6	14
AT1G76620	chr1	28753841	28754444	604	*	138	28756521	28759297	+	upstream	-2680	2077	NearestLocation	843995		At1g76620/F14G6_22 [Source:UniProtKB/TrEMBL;Acc:Q8W4R7]	4	-0.254	0.00378	17.5	14.8
AT1G78380	chr1	29488204	29488841	638	*	147	29486413	29487906	-	upstream	-298	298	NearestLocation	844174	ATGSTU19	GSTU19 [Source:UniProtKB/TrEMBL;Acc:A0A178W4K6]	8	0.193	0.0114	339	386
AT1G78610	chr1	29572343	29573131	789	*	148	29569030	29572126	-	upstream	-217	217	NearestLocation	844197	MSL6	Mechanosensitive ion channel protein 6 [Source:UniProtKB/Swiss-Prot;Acc:Q9SYM1]	4	0.215	0.015	14.2	16.4
AT1G78610	chr1	29572343	29573131	789	*	148	29569030	29572126	-	upstream	-217	217	NearestLocation	844197	MSL6	Mechanosensitive ion channel protein 6 [Source:UniProtKB/Swiss-Prot;Acc:Q9SYM1]	8	0.373	0.000754	14.2	18
AT1G78700	chr1	29600173	29600821	649	*	149	29599349	29601682	+	inside	824	824	Overlapping	844206	BEH4	BES1/BZR1 homolog protein 4 [Source:UniProtKB/Swiss-Prot;Acc:Q9ZV88]	4	0.734	1.51e-09	14.8	24.4
AT1G78700	chr1	29600173	29600821	649	*	149	29599349	29601682	+	inside	824	824	Overlapping	844206	BEH4	BES1/BZR1 homolog protein 4 [Source:UniProtKB/Swiss-Prot;Acc:Q9ZV88]	2	0.664	1.38e-05	16.3	25.8
AT1G78700	chr1	29600173	29600821	649	*	149	29599349	29601682	+	inside	824	824	Overlapping	844206	BEH4	BES1/BZR1 homolog protein 4 [Source:UniProtKB/Swiss-Prot;Acc:Q9ZV88]	8	0.918	1.19e-07	15.4	28.4
AT1G78710	chr1	29600173	29600821	649	*	149	29601253	29604557	+	upstream	-1080	432	NearestLocation	844207	TBL42	Protein trichome birefringence-like 42 [Source:UniProtKB/Swiss-Prot;Acc:Q9ZV89]	8	0.819	1.94e-05	6.85	11.8
AT1G78710	chr1	29600173	29600821	649	*	149	29601253	29604557	+	upstream	-1080	432	NearestLocation	844207	TBL42	Protein trichome birefringence-like 42 [Source:UniProtKB/Swiss-Prot;Acc:Q9ZV89]	2	0.661	0.00148	7.33	11.3
AT1G78710	chr1	29600173	29600821	649	*	149	29601253	29604557	+	upstream	-1080	432	NearestLocation	844207	TBL42	Protein trichome birefringence-like 42 [Source:UniProtKB/Swiss-Prot;Acc:Q9ZV89]	4	0.595	0.000246	6.54	9.72
AT1G78850	chr1	29644022	29644556	535	*	150	29641926	29643431	-	upstream	-591	591	NearestLocation	844222		EP1-like glycoprotein 3 [Source:UniProtKB/Swiss-Prot;Acc:Q9ZVA4]	2	0.43	0.00102	27.5	34.1
AT1G78850	chr1	29644022	29644556	535	*	150	29641926	29643431	-	upstream	-591	591	NearestLocation	844222		EP1-like glycoprotein 3 [Source:UniProtKB/Swiss-Prot;Acc:Q9ZVA4]	4	0.638	0.000336	9.5	16.1
AT1G79110	chr1	29762483	29763007	525	*	152	29759157	29760704	+	downstream	3326	1779	NearestLocation	844252		Probable BOI-related E3 ubiquitin-protein ligase 2 [Source:UniProtKB/Swiss-Prot;Acc:F4IDI6]	8	0.214	0.0144	48.7	54.9
AT1G79420	chr1	29872717	29873600	884	*	153	29871458	29874315	+	inside	1259	715	NearestLocation	844280		At1g79420/T8K14_16 [Source:UniProtKB/TrEMBL;Acc:Q940T0]	4	0.513	0.000321	5.98	8.25
AT1G79420	chr1	29872717	29873600	884	*	153	29871458	29874315	+	inside	1259	715	NearestLocation	844280		At1g79420/T8K14_16 [Source:UniProtKB/TrEMBL;Acc:Q940T0]	8	0.626	0.000138	6.14	9.05
AT2G01570	chr2	257437	258301	865	*	155	255249	257550	-	overlapStart	113	113	NearestLocation	814686	RGA1	DELLA protein RGA [Source:UniProtKB/Swiss-Prot;Acc:Q9SLH3]	4	0.259	3.7e-05	57.6	68.6
AT2G01570	chr2	257437	258301	865	*	155	255249	257550	-	overlapStart	113	113	NearestLocation	814686	RGA1	DELLA protein RGA [Source:UniProtKB/Swiss-Prot;Acc:Q9SLH3]	8	0.334	0.000182	54.1	68.1
AT2G01570	chr2	257437	258301	865	*	155	255249	257550	-	overlapStart	113	113	NearestLocation	814686	RGA1	DELLA protein RGA [Source:UniProtKB/Swiss-Prot;Acc:Q9SLH3]	2	0.246	0.0101	60.3	69.5
AT2G01940	chr2	435380	437097	1718	*	157	432275	435077	+	downstream	3105	303	NearestLocation	814725	SGR5	C2H2-like zinc finger protein [Source:TAIR;Acc:AT2G01940]	8	0.497	0.0107	4.31	5.87
AT2G01940	chr2	435380	437097	1718	*	157	432275	435077	+	downstream	3105	303	NearestLocation	814725	SGR5	C2H2-like zinc finger protein [Source:TAIR;Acc:AT2G01940]	4	0.32	0.0281	4.69	6.04
AT2G01940	chr2	435380	437097	1718	*	156	432275	435077	+	downstream	3105	303	NearestLocation	814725	SGR5	C2H2-like zinc finger protein [Source:TAIR;Acc:AT2G01940]	8	0.497	0.0107	4.31	5.87
AT2G01940	chr2	435380	437097	1718	*	156	432275	435077	+	downstream	3105	303	NearestLocation	814725	SGR5	C2H2-like zinc finger protein [Source:TAIR;Acc:AT2G01940]	4	0.32	0.0281	4.69	6.04
AT2G05710	chr2	2141009	2141921	913	*	164	2141399	2146678	+	overlapStart	-390	390	NearestLocation	815120	ACO3	Aconitate hydratase 3	4	0.115	0.0441	161	173
AT2G22680	chr2	9642398	9643099	702	*	173	9645313	9647613	+	upstream	-2915	2214	NearestLocation	816799		E3 ubiquitin-protein ligase WAVH1 [Source:UniProtKB/Swiss-Prot;Acc:Q9ZQ46]	4	0.291	0.000536	14.9	18.1
AT2G22680	chr2	9642398	9643099	702	*	173	9645313	9647613	+	upstream	-2915	2214	NearestLocation	816799		E3 ubiquitin-protein ligase WAVH1 [Source:UniProtKB/Swiss-Prot;Acc:Q9ZQ46]	8	0.351	0.0011	14.2	18
AT2G22680	chr2	9646611	9647162	552	*	174	9645313	9647613	+	inside	1298	451	NearestLocation	816799		E3 ubiquitin-protein ligase WAVH1 [Source:UniProtKB/Swiss-Prot;Acc:Q9ZQ46]	4	0.291	0.000536	14.9	18.1
AT2G22680	chr2	9646611	9647162	552	*	174	9645313	9647613	+	inside	1298	451	NearestLocation	816799		E3 ubiquitin-protein ligase WAVH1 [Source:UniProtKB/Swiss-Prot;Acc:Q9ZQ46]	8	0.351	0.0011	14.2	18
AT2G23690	chr2	10073761	10074282	522	*	176	10072233	10073126	+	downstream	1528	635	NearestLocation	816900		HTH-type transcriptional regulator [Source:UniProtKB/TrEMBL;Acc:Q680G2]	2	0.521	0.0382	4.94	6.35
AT2G29670	chr2	12682929	12683547	619	*	188	12681958	12685087	-	inside	2158	971	NearestLocation	817517		At2g29670/T27A16.23 [Source:UniProtKB/TrEMBL;Acc:O82388]	4	0.168	0.0188	23.3	25.7
AT2G29670	chr2	12682929	12683547	619	*	188	12681958	12685087	-	inside	2158	971	NearestLocation	817517		At2g29670/T27A16.23 [Source:UniProtKB/TrEMBL;Acc:O82388]	2	0.354	0.00542	19.4	24.5
AT2G31750	chr2	13498044	13498581	538	*	192	13497233	13500023	+	inside	811	811	NearestLocation	817732	UGT74D1	UDP-glucosyl transferase 74D1 [Source:TAIR;Acc:AT2G31750]	8	0.231	0.0285	18.3	21.3
AT2G34930	chr2	14739831	14740387	557	*	205	14737066	14739904	-	overlapStart	73	73	NearestLocation	818058		Disease resistance family protein / LRR family protein [Source:UniProtKB/TrEMBL;Acc:O64757]	4	0.294	0.0113	4.59	5.73
AT2G34930	chr2	14739831	14740387	557	*	205	14737066	14739904	-	overlapStart	73	73	NearestLocation	818058		Disease resistance family protein / LRR family protein [Source:UniProtKB/TrEMBL;Acc:O64757]	2	0.482	0.00236	6.49	8.88
AT2G37630	chr2	15785618	15786312	695	*	213	15781615	15783433	-	upstream	-2185	2185	NearestLocation	818340	ATPHAN	Transcription factor AS1 [Source:UniProtKB/Swiss-Prot;Acc:O80931]	4	-0.235	0.000233	59.6	50.7
AT2G37630	chr2	15785618	15786312	695	*	213	15781615	15783433	-	upstream	-2185	2185	NearestLocation	818340	ATPHAN	Transcription factor AS1 [Source:UniProtKB/Swiss-Prot;Acc:O80931]	8	-0.175	0.0299	64.2	56.8
AT2G37630	chr2	15784081	15784818	738	*	212	15781615	15783433	-	upstream	-648	648	NearestLocation	818340	ATPHAN	Transcription factor AS1 [Source:UniProtKB/Swiss-Prot;Acc:O80931]	4	-0.235	0.000233	59.6	50.7
AT2G37630	chr2	15784081	15784818	738	*	212	15781615	15783433	-	upstream	-648	648	NearestLocation	818340	ATPHAN	Transcription factor AS1 [Source:UniProtKB/Swiss-Prot;Acc:O80931]	8	-0.175	0.0299	64.2	56.8
AT2G38230	chr2	16010909	16011337	429	*	215	16011456	16012508	+	upstream	-547	119	NearestLocation	818402	ATPDX1.1	Pyridoxal 5'-phosphate synthase subunit PDX1.1 [Source:UniProtKB/Swiss-Prot;Acc:O80448]	2	0.311	0.00602	45	55.7
AT2G38230	chr2	16010909	16011337	429	*	215	16011456	16012508	+	upstream	-547	119	NearestLocation	818402	ATPDX1.1	Pyridoxal 5'-phosphate synthase subunit PDX1.1 [Source:UniProtKB/Swiss-Prot;Acc:O80448]	4	0.245	0.00152	34.8	41.3
AT2G40330	chr2	16845802	16846424	623	*	219	16844864	16845934	-	overlapStart	132	132	NearestLocation	818626	PYL6	Abscisic acid receptor PYL6 [Source:UniProtKB/Swiss-Prot;Acc:Q8S8E3]	2	0.552	0.000872	21.2	30.3
AT2G44500	chr2	18372626	18372921	296	*	235	18374292	18376790	+	upstream	-1666	1371	NearestLocation	819057		O-fucosyltransferase 20 [Source:UniProtKB/Swiss-Prot;Acc:O64884]	8	0.299	0.016	9.15	11.3
AT2G45050	chr2	18580044	18581098	1055	*	237	18582872	18584083	+	upstream	-2828	1774	NearestLocation	819112	GATA2	GATA transcription factor 2 [Source:UniProtKB/Swiss-Prot;Acc:O49741]	8	0.446	0.0437	3.79	5.15
AT2G45160	chr2	18620006	18621321	1316	*	239	18617862	18620150	-	overlapStart	144	144	NearestLocation	819124	HAM1	Scarecrow-like protein 27 [Source:UniProtKB/Swiss-Prot;Acc:Q7XJM8]	8	0.309	0.00252	27	33.6
AT2G45160	chr2	18620006	18621321	1316	*	239	18617862	18620150	-	overlapStart	144	144	NearestLocation	819124	HAM1	Scarecrow-like protein 27 [Source:UniProtKB/Swiss-Prot;Acc:Q7XJM8]	4	0.293	1.14e-05	30.4	37.3
AT2G45160	chr2	18620006	18621321	1316	*	239	18617862	18620150	-	overlapStart	144	144	NearestLocation	819124	HAM1	Scarecrow-like protein 27 [Source:UniProtKB/Swiss-Prot;Acc:Q7XJM8]	2	0.251	0.0139	37.3	42.4
AT2G46530	chr2	19103764	19104754	991	*	248	19104665	19108331	+	overlapStart	-901	89	NearestLocation	819264	ARF11	Auxin response factor 11 [Source:UniProtKB/Swiss-Prot;Acc:Q9ZPY6]	8	0.376	0.000609	11	14.6
AT2G47780	chr2	19569408	19570184	777	*	254	19570049	19571034	+	overlapStart	-641	135	NearestLocation	819390		REF/SRPP-like protein At2g47780 [Source:UniProtKB/Swiss-Prot;Acc:O82246]	4	0.482	0.041	2.92	4.03
AT2G47780	chr2	19569408	19570184	777	*	254	19570049	19571034	+	overlapStart	-641	135	NearestLocation	819390		REF/SRPP-like protein At2g47780 [Source:UniProtKB/Swiss-Prot;Acc:O82246]	8	0.718	0.00378	3.12	5.08
AT3G02410	chr3	495097	495731	635	*	257	492118	494948	-	upstream	-149	149	NearestLocation	821191	ICME-LIKE2	Carboxylic ester hydrolase [Source:UniProtKB/TrEMBL;Acc:A0A178V7M1]	8	0.625	0.000641	7.77	11.3
AT3G03170	chr3	731258	732167	910	*	258	731891	732875	+	overlapStart	-633	276	NearestLocation	821064		At3g03170 [Source:UniProtKB/TrEMBL;Acc:Q29PZ2]	8	0.985	8.25e-05	5.35	10.6
AT3G03170	chr3	731258	732167	910	*	258	731891	732875	+	overlapStart	-633	276	NearestLocation	821064		At3g03170 [Source:UniProtKB/TrEMBL;Acc:Q29PZ2]	4	1.11	7.24e-06	2.79	6.03
AT3G10040	chr3	3097867	3098540	674	*	267	3096415	3098071	-	overlapStart	204	204	NearestLocation	820165		Sequence-specific DNA binding transcription factor [Source:UniProtKB/TrEMBL;Acc:Q8RWY5]	4	0.503	0.00262	6.22	9.17
AT3G10040	chr3	3097867	3098540	674	*	267	3096415	3098071	-	overlapStart	204	204	NearestLocation	820165		Sequence-specific DNA binding transcription factor [Source:UniProtKB/TrEMBL;Acc:Q8RWY5]	2	0.369	0.0413	4.32	5.46
AT3G10985	chr3	3441993	3442733	741	*	269	3442528	3443445	+	overlapStart	-535	205	NearestLocation	2745879	SAG20	Senescence associated gene 20 [Source:UniProtKB/Swiss-Prot;Acc:Q94AK6]	8	0.284	0.00957	77.4	92.4
AT3G10985	chr3	3441993	3442733	741	*	269	3442528	3443445	+	overlapStart	-535	205	NearestLocation	2745879	SAG20	Senescence associated gene 20 [Source:UniProtKB/Swiss-Prot;Acc:Q94AK6]	4	0.26	0.000655	75.8	87.1
AT3G13690	chr3	4484625	4485157	533	*	281	4485735	4490231	+	upstream	-1110	578	NearestLocation	820578		Kinase with adenine nucleotide alpha hydrolases-like domain-containing protein [Source:UniProtKB/TrEMBL;Acc:Q9LIC9]	8	0.248	0.00364	30	34.5
AT3G13690	chr3	4484625	4485157	533	*	281	4485735	4490231	+	upstream	-1110	578	NearestLocation	820578		Kinase with adenine nucleotide alpha hydrolases-like domain-containing protein [Source:UniProtKB/TrEMBL;Acc:Q9LIC9]	4	0.2	0.00136	28.2	33
AT3G15020	chr3	5058014	5058761	748	*	286	5056068	5058248	+	overlapEnd	1946	234	NearestLocation	820731	mMDH2	Malate dehydrogenase 2	8	0.303	0.000226	80.6	98.5
AT3G15020	chr3	5058014	5058761	748	*	286	5056068	5058248	+	overlapEnd	1946	234	NearestLocation	820731	mMDH2	Malate dehydrogenase 2	4	0.142	0.0163	71.1	76.4
AT3G17998	chr3	6153672	6154202	531	*	291	6154363	6157551	+	upstream	-691	161	NearestLocation	NA	NA	NA	4	-0.152	0.0332	165	145
AT3G18000	chr3	6153672	6154202	531	*	291	6154363	6157552	+	upstream	-691	161	NearestLocation	821324	NMT1	XPL1 [Source:UniProtKB/TrEMBL;Acc:A0A178VHS8]	4	-0.152	0.0332	165	145
AT3G20820	chr3	7280120	7281387	1268	*	296	7280878	7282177	+	overlapStart	-758	509	NearestLocation	821630		Leucine-rich repeat (LRR) family protein [Source:UniProtKB/TrEMBL;Acc:Q9LT39]	8	0.212	0.00863	177	203
AT3G20820	chr3	7280120	7281387	1268	*	296	7280878	7282177	+	overlapStart	-758	509	NearestLocation	821630		Leucine-rich repeat (LRR) family protein [Source:UniProtKB/TrEMBL;Acc:Q9LT39]	4	0.209	0.000349	161	184
AT3G21720	chr3	7657828	7658268	441	*	299	7652487	7656011	-	upstream	-1817	1817	NearestLocation	821726	ICL	Isocitrate lyase [Source:UniProtKB/Swiss-Prot;Acc:P28297]	8	0.695	0.00169	2.54	3.82
AT3G21720	chr3	7654999	7655131	133	*	298	7652487	7656011	-	inside	1012	880	NearestLocation	821726	ICL	Isocitrate lyase [Source:UniProtKB/Swiss-Prot;Acc:P28297]	8	0.695	0.00169	2.54	3.82
AT3G23810	chr3	8595288	8595698	411	*	305	8587664	8589713	-	upstream	-5575	5575	NearestLocation	821964	SAHH2	Adenosylhomocysteinase [Source:UniProtKB/TrEMBL;Acc:A0A178VEP9]	4	-0.133	0.0171	434	390
AT3G24810	chr3	9058309	9059112	804	*	307	9060896	9061998	+	upstream	-2587	1784	NearestLocation	822079	ICK3	Cyclin-dependent kinase inhibitor 5 [Source:UniProtKB/Swiss-Prot;Acc:Q9LRY0]	8	0.781	1.57e-05	10.6	17.8
AT3G24810	chr3	9058309	9059112	804	*	307	9060896	9061998	+	upstream	-2587	1784	NearestLocation	822079	ICK3	Cyclin-dependent kinase inhibitor 5 [Source:UniProtKB/Swiss-Prot;Acc:Q9LRY0]	4	0.542	0.000106	9.55	13.4
AT3G24810	chr3	9058309	9059112	804	*	307	9060896	9061998	+	upstream	-2587	1784	NearestLocation	822079	ICK3	Cyclin-dependent kinase inhibitor 5 [Source:UniProtKB/Swiss-Prot;Acc:Q9LRY0]	2	0.405	0.0139	10.2	13.1
AT3G26810	chr3	9867439	9867907	469	*	309	9867845	9870640	+	overlapStart	-406	62	NearestLocation	822296	AFB2	AFB2 [Source:UniProtKB/TrEMBL;Acc:A0A178VGF7]	8	0.185	0.0425	20.2	23.1
AT3G54220	chr3	20068867	20069834	968	*	325	20070158	20072780	+	upstream	-1291	324	NearestLocation	824589	SCR	Protein SCARECROW [Source:UniProtKB/Swiss-Prot;Acc:Q9M384]	4	0.182	0.0182	16.4	18.5
AT3G54220	chr3	20068867	20069834	968	*	325	20070158	20072780	+	upstream	-1291	324	NearestLocation	824589	SCR	Protein SCARECROW [Source:UniProtKB/Swiss-Prot;Acc:Q9M384]	8	0.238	0.00955	14.2	16.5
AT3G54220	chr3	20068867	20069834	968	*	325	20070158	20072780	+	upstream	-1291	324	NearestLocation	824589	SCR	Protein SCARECROW [Source:UniProtKB/Swiss-Prot;Acc:Q9M384]	2	0.271	0.00721	17.9	21.4
AT3G56880	chr3	21057833	21058582	750	*	331	21059915	21060965	+	upstream	-2082	1333	NearestLocation	824855		VQ motif-containing protein [Source:UniProtKB/TrEMBL;Acc:Q9LES0]	8	0.207	0.0121	54.8	63.5
AT3G56880	chr3	21057833	21058582	750	*	331	21059915	21060965	+	upstream	-2082	1333	NearestLocation	824855		VQ motif-containing protein [Source:UniProtKB/TrEMBL;Acc:Q9LES0]	4	0.176	0.0133	48.5	53.4
AT3G57130	chr3	21144503	21145775	1273	*	333	21147558	21150027	+	upstream	-3055	1783	NearestLocation	824880	BOP1	Regulatory protein NPR6 [Source:UniProtKB/Swiss-Prot;Acc:Q9M1I7]	4	-0.449	0.0269	3.91	2.88
AT3G60530	chr3	22368267	22369938	1672	*	342	22373215	22374387	+	upstream	-4948	3277	NearestLocation	825224	GATA4	GATA transcription factor 4 [Source:UniProtKB/Swiss-Prot;Acc:O49743]	4	0.446	1.35e-07	47.3	64.2
AT3G60530	chr3	22368267	22369938	1672	*	342	22373215	22374387	+	upstream	-4948	3277	NearestLocation	825224	GATA4	GATA transcription factor 4 [Source:UniProtKB/Swiss-Prot;Acc:O49743]	8	0.323	0.0031	49.8	62.4
AT3G60530	chr3	22368267	22369938	1672	*	342	22373215	22374387	+	upstream	-4948	3277	NearestLocation	825224	GATA4	GATA transcription factor 4 [Source:UniProtKB/Swiss-Prot;Acc:O49743]	2	0.239	0.0372	42.7	48.9
AT3G60530	chr3	22368267	22369938	1672	*	341	22373215	22374387	+	upstream	-4948	3277	NearestLocation	825224	GATA4	GATA transcription factor 4 [Source:UniProtKB/Swiss-Prot;Acc:O49743]	4	0.446	1.35e-07	47.3	64.2
AT3G60530	chr3	22368267	22369938	1672	*	341	22373215	22374387	+	upstream	-4948	3277	NearestLocation	825224	GATA4	GATA transcription factor 4 [Source:UniProtKB/Swiss-Prot;Acc:O49743]	8	0.323	0.0031	49.8	62.4
AT3G60530	chr3	22368267	22369938	1672	*	341	22373215	22374387	+	upstream	-4948	3277	NearestLocation	825224	GATA4	GATA transcription factor 4 [Source:UniProtKB/Swiss-Prot;Acc:O49743]	2	0.239	0.0372	42.7	48.9
AT3G61070	chr3	22606481	22607367	887	*	346	22604094	22606878	-	overlapStart	397	397	NearestLocation	825279	PEX11E	PEX11E [Source:UniProtKB/TrEMBL;Acc:A0A178VG67]	8	0.197	0.0187	45.3	51.9
AT3G62980	chr3	23276394	23277715	1322	*	354	23273116	23276375	-	upstream	-19	19	NearestLocation	825473	TIR1	TIR1 [Source:UniProtKB/TrEMBL;Acc:A0A178VA54]	4	0.144	0.0164	47.8	52.2
AT3G63210	chr3	23354983	23355773	791	*	355	23353615	23355160	-	overlapStart	177	177	NearestLocation	825496	MARD1	Protein MARD1 [Source:UniProtKB/Swiss-Prot;Acc:Q8LGS1]	4	0.191	0.00995	36.1	41.2
AT3G63450	chr3	23428950	23429408	459	*	356	23426749	23429154	-	overlapStart	204	204	NearestLocation	825520		RNA-binding (RRM/RBD/RNP motifs) family protein [Source:UniProtKB/TrEMBL;Acc:F4J108]	8	0.336	0.000824	19.6	24.2
AT3G63450	chr3	23428950	23429408	459	*	356	23426749	23429154	-	overlapStart	204	204	NearestLocation	825520		RNA-binding (RRM/RBD/RNP motifs) family protein [Source:UniProtKB/TrEMBL;Acc:F4J108]	4	0.26	0.0013	19.5	23.7
AT3G63450	chr3	23429742	23430469	728	*	357	23426749	23429154	-	upstream	-588	588	NearestLocation	825520		RNA-binding (RRM/RBD/RNP motifs) family protein [Source:UniProtKB/TrEMBL;Acc:F4J108]	8	0.336	0.000824	19.6	24.2
AT3G63450	chr3	23429742	23430469	728	*	357	23426749	23429154	-	upstream	-588	588	NearestLocation	825520		RNA-binding (RRM/RBD/RNP motifs) family protein [Source:UniProtKB/TrEMBL;Acc:F4J108]	4	0.26	0.0013	19.5	23.7
AT4G00355	chr4	154481	155050	570	*	359	154705	156376	+	overlapStart	-224	224	NearestLocation	827659		ATG8-interacting protein 2 [Source:UniProtKB/Swiss-Prot;Acc:Q8VY98]	4	0.197	0.0136	25.4	29.1
AT4G00355	chr4	154481	155050	570	*	359	154705	156376	+	overlapStart	-224	224	NearestLocation	827659		ATG8-interacting protein 2 [Source:UniProtKB/Swiss-Prot;Acc:Q8VY98]	2	0.309	0.00409	28.6	34.8
AT4G00355	chr4	154481	155050	570	*	359	154705	156376	+	overlapStart	-224	224	NearestLocation	827659		ATG8-interacting protein 2 [Source:UniProtKB/Swiss-Prot;Acc:Q8VY98]	8	0.251	0.0107	25.7	30.2
AT4G01610	chr4	694490	694927	438	*	363	694695	697206	+	overlapStart	-205	205	NearestLocation	826792		Cathepsin B-like protease 3 [Source:UniProtKB/Swiss-Prot;Acc:Q94K85]	8	0.371	8.41e-05	75.1	96.6
AT4G01610	chr4	694490	694927	438	*	363	694695	697206	+	overlapStart	-205	205	NearestLocation	826792		Cathepsin B-like protease 3 [Source:UniProtKB/Swiss-Prot;Acc:Q94K85]	4	0.275	1.23e-05	73.9	90.3
AT4G03205	chr4	1414728	1416024	1297	*	366	1412785	1414902	+	overlapEnd	1943	174	Overlapping	828029	hemf2	Coproporphyrinogen III oxidase [Source:TAIR;Acc:AT4G03205]	4	0.182	0.0475	20.2	22.9
AT4G03210	chr4	1414728	1416024	1297	*	366	1415949	1417352	+	overlapStart	-1221	75	NearestLocation	828024	XTH9	Xyloglucan endotransglucosylase/hydrolase (Fragment) [Source:UniProtKB/TrEMBL;Acc:C0SVH2]	4	0.351	3.11e-07	890	1120
AT4G03210	chr4	1414728	1416024	1297	*	366	1415949	1417352	+	overlapStart	-1221	75	NearestLocation	828024	XTH9	Xyloglucan endotransglucosylase/hydrolase (Fragment) [Source:UniProtKB/TrEMBL;Acc:C0SVH2]	2	0.315	0.00332	613	723
AT4G03210	chr4	1414728	1416024	1297	*	366	1415949	1417352	+	overlapStart	-1221	75	NearestLocation	828024	XTH9	Xyloglucan endotransglucosylase/hydrolase (Fragment) [Source:UniProtKB/TrEMBL;Acc:C0SVH2]	8	0.405	3.94e-05	1020	1370
AT4G11300	chr4	6874724	6875412	689	*	371	6872151	6873541	-	upstream	-1183	1183	NearestLocation	826732		At4g11300 [Source:UniProtKB/TrEMBL;Acc:Q9SUT1]	4	0.42	0.0167	3.42	4.58
AT4G14740	chr4	8453880	8454302	423	*	373	8450289	8454028	-	overlapStart	148	148	NearestLocation	827127		Auxin canalization protein (DUF828) [Source:UniProtKB/TrEMBL;Acc:Q8VY20]	8	0.236	0.0282	18.2	21
AT4G26760	chr4	13481533	13482058	526	*	396	13478592	13481808	-	overlapStart	275	250	NearestLocation	828783	MAP65-2	MAP65-2 [Source:UniProtKB/TrEMBL;Acc:A0A178V4W3]	8	0.352	0.000126	45	55.9
AT4G26760	chr4	13481533	13482058	526	*	396	13478592	13481808	-	overlapStart	275	250	NearestLocation	828783	MAP65-2	MAP65-2 [Source:UniProtKB/TrEMBL;Acc:A0A178V4W3]	4	0.194	0.0021	43.4	50.5
AT4G28100	chr4	13967072	13967711	640	*	398	13965108	13966860	-	upstream	-212	212	NearestLocation	828926		Uncharacterized GPI-anchored protein At4g28100 [Source:UniProtKB/Swiss-Prot;Acc:Q9SUC9]	8	0.259	0.00702	25.1	29.7
AT4G28100	chr4	13967072	13967711	640	*	398	13965108	13966860	-	upstream	-212	212	NearestLocation	828926		Uncharacterized GPI-anchored protein At4g28100 [Source:UniProtKB/Swiss-Prot;Acc:Q9SUC9]	4	0.227	0.0102	24.7	28.1
AT4G32980	chr4	15917803	15918647	845	*	411	15914722	15918044	-	overlapStart	241	241	NearestLocation	829435	ATH1	Homeobox protein ATH1 [Source:UniProtKB/Swiss-Prot;Acc:P48731]	8	-0.258	0.0452	14.6	11.8
AT4G32980	chr4	15917803	15918647	845	*	411	15914722	15918044	-	overlapStart	241	241	NearestLocation	829435	ATH1	Homeobox protein ATH1 [Source:UniProtKB/Swiss-Prot;Acc:P48731]	4	-0.238	0.00574	18.7	15.8
AT4G35070	chr4	16695959	16696513	555	*	416	16694170	16695698	+	downstream	1789	261	NearestLocation	829659		At4g35070 [Source:UniProtKB/TrEMBL;Acc:Q66GR4]	8	0.289	0.0165	14.8	18.8
AT4G35090	chr4	16703965	16704614	650	*	417	16700342	16703325	-	upstream	-640	640	NearestLocation	829661	CAT2	catalase 2 [Source:TAIR;Acc:AT4G35090]	4	0.37	7.86e-07	78	102
AT4G35090	chr4	16703965	16704614	650	*	417	16700342	16703325	-	upstream	-640	640	NearestLocation	829661	CAT2	catalase 2 [Source:TAIR;Acc:AT4G35090]	8	0.398	4.66e-05	25.6	34.2
AT4G35090	chr4	16703965	16704614	650	*	417	16700342	16703325	-	upstream	-640	640	NearestLocation	829661	CAT2	catalase 2 [Source:TAIR;Acc:AT4G35090]	2	0.286	0.00776	89.1	112
AT4G35770	chr4	16944587	16945112	526	*	418	16944941	16946192	+	overlapStart	-354	171	NearestLocation	829730	SEN1	SEN1 [Source:UniProtKB/TrEMBL;Acc:A0A178UYD5]	2	1.03	0.00509	21.2	47.8
AT4G35770	chr4	16944587	16945112	526	*	418	16944941	16946192	+	overlapStart	-354	171	NearestLocation	829730	SEN1	SEN1 [Source:UniProtKB/TrEMBL;Acc:A0A178UYD5]	8	1.36	3.79e-06	4.48	11.7
AT4G35770	chr4	16944587	16945112	526	*	418	16944941	16946192	+	overlapStart	-354	171	NearestLocation	829730	SEN1	SEN1 [Source:UniProtKB/TrEMBL;Acc:A0A178UYD5]	4	1.39	6.54e-08	7.65	22.9
AT4G36930	chr4	17410304	17411005	702	*	428	17414127	17416294	+	upstream	-3823	3122	NearestLocation	829847	SPT	SPT [Source:UniProtKB/TrEMBL;Acc:A0A178UVX7]	8	0.418	7.75e-05	22.1	29.2
AT4G36930	chr4	17410304	17411005	702	*	428	17414127	17416294	+	upstream	-3823	3122	NearestLocation	829847	SPT	SPT [Source:UniProtKB/TrEMBL;Acc:A0A178UVX7]	4	0.297	0.00138	20.5	24.8
AT4G36930	chr4	17410304	17411005	702	*	428	17414127	17416294	+	upstream	-3823	3122	NearestLocation	829847	SPT	SPT [Source:UniProtKB/TrEMBL;Acc:A0A178UVX7]	2	0.269	0.0194	17.2	20.4
AT4G36970	chr4	17431455	17432615	1161	*	429	17429744	17431685	-	overlapStart	230	230	NearestLocation	829851		Remorin family protein [Source:UniProtKB/TrEMBL;Acc:O23188]	8	0.28	0.00406	17.4	21.2
AT4G37870	chr4	17806776	17807610	835	*	436	17802694	17806539	-	upstream	-237	237	NearestLocation	829943	PCK1	Phosphoenolpyruvate carboxykinase (ATP)-like protein [Source:UniProtKB/TrEMBL;Acc:Q0WWL8]	4	0.28	4.15e-05	154	182
AT4G37870	chr4	17806776	17807610	835	*	436	17802694	17806539	-	upstream	-237	237	NearestLocation	829943	PCK1	Phosphoenolpyruvate carboxykinase (ATP)-like protein [Source:UniProtKB/TrEMBL;Acc:Q0WWL8]	8	0.362	0.000862	161	201
AT4G38770	chr4	18098233	18098674	442	*	438	18096809	18098565	-	overlapStart	332	109	NearestLocation	830032	PRP4	Proline-rich protein 4 [Source:UniProtKB/Swiss-Prot;Acc:Q9T0I5]	4	-0.222	0.000878	659	566
AT4G38770	chr4	18098233	18098674	442	*	438	18096809	18098565	-	overlapStart	332	109	NearestLocation	830032	PRP4	Proline-rich protein 4 [Source:UniProtKB/Swiss-Prot;Acc:Q9T0I5]	8	-0.242	0.00342	601	493
AT5G03760	chr5	991132	991519	388	*	454	985675	990549	-	upstream	-583	583	NearestLocation	831734	ATCSLA09	Glucomannan 4-beta-mannosyltransferase 9 [Source:UniProtKB/Swiss-Prot;Acc:Q9LZR3]	4	-0.235	0.00544	20.4	17.6
AT5G03760	chr5	991132	991519	388	*	454	985675	990549	-	upstream	-583	583	NearestLocation	831734	ATCSLA09	Glucomannan 4-beta-mannosyltransferase 9 [Source:UniProtKB/Swiss-Prot;Acc:Q9LZR3]	8	-0.246	0.035	17.4	14.7
AT5G04885	chr5	1422627	1422848	222	*	457	1422799	1426879	+	overlapStart	-172	49	NearestLocation	830368		Glycosyl hydrolase family protein [Source:TAIR;Acc:AT5G04885]	8	0.206	0.00482	59.1	67.4
AT5G04885	chr5	1422627	1422848	222	*	457	1422799	1426879	+	overlapStart	-172	49	NearestLocation	830368		Glycosyl hydrolase family protein [Source:TAIR;Acc:AT5G04885]	4	0.202	0.00126	50.5	57.3
AT5G09440	chr5	2936431	2937549	1119	*	465	2938347	2939461	+	upstream	-1916	798	NearestLocation	830803	EXL4	EXL4 [Source:UniProtKB/TrEMBL;Acc:A0A178UJ96]	8	0.194	0.0254	62.3	70.5
AT5G09440	chr5	2936431	2937549	1119	*	465	2938347	2939461	+	upstream	-1916	798	NearestLocation	830803	EXL4	EXL4 [Source:UniProtKB/TrEMBL;Acc:A0A178UJ96]	2	0.235	0.0244	61.4	70.9
AT5G09440	chr5	2936431	2937549	1119	*	465	2938347	2939461	+	upstream	-1916	798	NearestLocation	830803	EXL4	EXL4 [Source:UniProtKB/TrEMBL;Acc:A0A178UJ96]	4	0.467	2.62e-08	53.6	73.5
AT5G09440	chr5	2939408	2940487	1080	*	466	2938347	2939461	+	overlapEnd	1061	53	Overlapping	830803	EXL4	EXL4 [Source:UniProtKB/TrEMBL;Acc:A0A178UJ96]	8	0.194	0.0254	62.3	70.5
AT5G09440	chr5	2939408	2940487	1080	*	466	2938347	2939461	+	overlapEnd	1061	53	Overlapping	830803	EXL4	EXL4 [Source:UniProtKB/TrEMBL;Acc:A0A178UJ96]	2	0.235	0.0244	61.4	70.9
AT5G09440	chr5	2939408	2940487	1080	*	466	2938347	2939461	+	overlapEnd	1061	53	Overlapping	830803	EXL4	EXL4 [Source:UniProtKB/TrEMBL;Acc:A0A178UJ96]	4	0.467	2.62e-08	53.6	73.5
AT5G13290	chr5	4254491	4255479	989	*	476	4252842	4254894	-	overlapStart	403	403	NearestLocation	831170	SOL2	Inactive leucine-rich repeat receptor-like protein kinase CORYNE [Source:UniProtKB/Swiss-Prot;Acc:Q9LYU7]	8	0.43	0.00226	10.3	13.7
AT5G13290	chr5	4254491	4255479	989	*	476	4252842	4254894	-	overlapStart	403	403	NearestLocation	831170	SOL2	Inactive leucine-rich repeat receptor-like protein kinase CORYNE [Source:UniProtKB/Swiss-Prot;Acc:Q9LYU7]	4	0.383	0.000119	9.87	12.6
AT5G26600	chr5	9377033	9377604	572	*	502	9377402	9379797	+	overlapStart	-369	202	NearestLocation	832730		Probable L-cysteine desulfhydrase	4	0.177	0.0189	26.9	29.5
AT5G26790	chr5	9422615	9423300	686	*	503	9423092	9423611	+	overlapStart	-477	208	NearestLocation	832737		At5g26790 [Source:UniProtKB/TrEMBL;Acc:Q8LAB7]	8	0.725	0.0297	3.76	6.48
AT5G26790	chr5	9422615	9423300	686	*	503	9423092	9423611	+	overlapStart	-477	208	NearestLocation	832737		At5g26790 [Source:UniProtKB/TrEMBL;Acc:Q8LAB7]	4	0.539	0.0384	4.6	6.74
AT5G27930	chr5	9966192	9966987	796	*	506	9958090	9961264	-	upstream	-4928	4928	NearestLocation	832860		Probable protein phosphatase 2C 73 [Source:UniProtKB/Swiss-Prot;Acc:Q0WRB2]	8	0.18	0.0249	39.2	43.6
AT5G28640	chr5	10649503	10650398	896	*	508	10647570	10649892	-	overlapStart	389	389	NearestLocation	832968	AN3	GRF1-interacting factor 1 [Source:UniProtKB/Swiss-Prot;Acc:Q8L8A5]	4	0.25	0.000763	72.8	86.8
AT5G28640	chr5	10649503	10650398	896	*	508	10647570	10649892	-	overlapStart	389	389	NearestLocation	832968	AN3	GRF1-interacting factor 1 [Source:UniProtKB/Swiss-Prot;Acc:Q8L8A5]	2	0.244	0.0168	72.7	83.1
AT5G28640	chr5	10649503	10650398	896	*	508	10647570	10649892	-	overlapStart	389	389	NearestLocation	832968	AN3	GRF1-interacting factor 1 [Source:UniProtKB/Swiss-Prot;Acc:Q8L8A5]	8	0.403	0.000376	59.1	76.5
AT5G28840	chr5	10864647	10865109	463	*	510	10862173	10864903	-	overlapStart	256	206	NearestLocation	833002	GME	GDP-mannose 3	4	0.153	0.00485	154	172
AT5G28840	chr5	10864647	10865109	463	*	510	10862173	10864903	-	overlapStart	256	206	NearestLocation	833002	GME	GDP-mannose 3	2	0.2	0.0393	206	231
AT5G44620	chr5	18000069	18001424	1356	*	523	17997779	17999558	-	upstream	-511	511	NearestLocation	834490	CYP706A3	Cytochrome P450	4	-0.159	0.00574	101	89.8
AT5G44620	chr5	18000069	18001424	1356	*	524	17997779	17999558	-	upstream	-511	511	NearestLocation	834490	CYP706A3	Cytochrome P450	4	-0.159	0.00574	101	89.8
AT5G50740	chr5	20637664	20638328	665	*	541	20635866	20637996	-	overlapStart	332	332	NearestLocation	835146		Heavy metal transport/detoxification superfamily protein [Source:UniProtKB/TrEMBL;Acc:B3H4U8]	4	-0.209	0.0379	30.9	27.1
AT5G56530	chr5	22888323	22888929	607	*	546	22889132	22891853	+	upstream	-809	203	NearestLocation	835754		Similarity to carboxyl-terminal proteinase [Source:UniProtKB/TrEMBL;Acc:Q9LVC1]	8	0.314	0.000712	20.4	25.5
AT5G60200	chr5	24239213	24239715	503	*	557	24240975	24242523	+	upstream	-1762	1260	NearestLocation	836142	TMO6	Dof zinc finger protein DOF5.3 [Source:UniProtKB/Swiss-Prot;Acc:Q84TE9]	4	0.253	0.00891	17.2	20.6
AT5G60200	chr5	24239213	24239715	503	*	557	24240975	24242523	+	upstream	-1762	1260	NearestLocation	836142	TMO6	Dof zinc finger protein DOF5.3 [Source:UniProtKB/Swiss-Prot;Acc:Q84TE9]	8	0.247	0.0249	15.9	19.1
AT5G63410	chr5	25398562	25399136	575	*	564	25394984	25398153	-	upstream	-409	409	NearestLocation	836460		Leucine-rich repeat protein kinase family protein [Source:UniProtKB/TrEMBL;Acc:Q84JF8]	8	0.237	0.0173	25.9	30.3
AT5G63410	chr5	25398562	25399136	575	*	564	25394984	25398153	-	upstream	-409	409	NearestLocation	836460		Leucine-rich repeat protein kinase family protein [Source:UniProtKB/TrEMBL;Acc:Q84JF8]	4	0.137	0.044	26.2	28.9
AT5G63410	chr5	25398562	25399136	575	*	564	25394984	25398153	-	upstream	-409	409	NearestLocation	836460		Leucine-rich repeat protein kinase family protein [Source:UniProtKB/TrEMBL;Acc:Q84JF8]	2	0.197	0.0434	29.7	33.1
AT5G63530	chr5	25431306	25431828	523	*	565	25433154	25435834	+	upstream	-1848	1326	NearestLocation	836472	ATFP3	Heavy metal-associated isoprenylated plant protein 7 [Source:UniProtKB/Swiss-Prot;Acc:Q9C5D3]	8	0.342	0.000247	111	136
AT5G63530	chr5	25431306	25431828	523	*	565	25433154	25435834	+	upstream	-1848	1326	NearestLocation	836472	ATFP3	Heavy metal-associated isoprenylated plant protein 7 [Source:UniProtKB/Swiss-Prot;Acc:Q9C5D3]	4	0.324	2.02e-06	93.3	118
AT5G64910	chr5	25940167	25940858	692	*	568	25940711	25944114	+	overlapStart	-544	147	NearestLocation	836615		unknown protein; BEST Arabidopsis thaliana protein match is: unknown protein (TAIR:AT5G10010.1); Ha. [Source:TAIR;Acc:AT5G64910]	8	-0.209	0.049	16.8	14.1
AT5G65110	chr5	26012134	26012978	845	*	569	26009635	26012519	-	overlapStart	385	385	NearestLocation	836635	ACX2	Acyl-coenzyme A oxidase [Source:UniProtKB/TrEMBL;Acc:A0A178UA38]	8	0.359	0.000134	24.6	31
AT5G65110	chr5	26012134	26012978	845	*	569	26009635	26012519	-	overlapStart	385	385	NearestLocation	836635	ACX2	Acyl-coenzyme A oxidase [Source:UniProtKB/TrEMBL;Acc:A0A178UA38]	4	0.235	0.000987	21.9	26.1
AT5G65590	chr5	26211082	26211817	736	*	574	26211746	26213136	-	overlapEnd	2054	71	NearestLocation	836685		Dof zinc finger protein DOF5.7 [Source:UniProtKB/Swiss-Prot;Acc:Q9LSL6]	8	0.652	0.00133	3.4	5.26
AT5G65590	chr5	26211082	26211817	736	*	574	26211746	26213136	-	overlapEnd	2054	71	NearestLocation	836685		Dof zinc finger protein DOF5.7 [Source:UniProtKB/Swiss-Prot;Acc:Q9LSL6]	4	0.675	0.000298	3.11	5.12
AT5G66780	chr5	26662894	26663574	681	*	579	26663573	26664403	+	overlapStart	-679	1	NearestLocation	836811		AT5g66780/MUD21_2 [Source:UniProtKB/TrEMBL;Acc:Q9FL02]	8	3.15	0.0128	0.0672	0.641
AT5G67070	chr5	26767656	26768379	724	*	581	26768020	26768846	+	overlapStart	-364	359	NearestLocation	836842	RALFL34	Protein RALF-like 34 [Source:UniProtKB/Swiss-Prot;Acc:Q9FHA6]	4	0.187	0.00198	222	245
AT5G67070	chr5	26767656	26768379	724	*	581	26768020	26768846	+	overlapStart	-364	359	NearestLocation	836842	RALFL34	Protein RALF-like 34 [Source:UniProtKB/Swiss-Prot;Acc:Q9FHA6]	8	0.168	0.0403	237	268
AT5G67070	chr5	26767656	26768379	724	*	581	26768020	26768846	+	overlapStart	-364	359	NearestLocation	836842	RALFL34	Protein RALF-like 34 [Source:UniProtKB/Swiss-Prot;Acc:Q9FHA6]	2	0.214	0.0291	195	209
