Query_ID	Target_ID	Optimal_offset	p-value	E-value	q-value	Overlap	Query_consensus	Target_consensus	Orientation
AGAGAGM	BBRBPC_tnt.BPC1_colamp_a_m1	1	4.76754e-06	0.0041573	0.00415729	7	AGAGAGA	GAGAGAGAGAGAGAG	-
AGAGAGM	BBRBPC_tnt.BPC6_col_a_m1	1	7.94589e-06	0.00692882	0.00415729	7	AGAGAGA	GAGAGAGAGAGAGAGAGAGAG	-
AGAGAGM	ND_tnt.FRS9_col_a_m1	5	7.94589e-06	0.00692882	0.00415729	7	AGAGAGA	GAGAGAGAGAGAGAGAGAGAG	-
AGAGAGM	BBRBPC_tnt.BPC1_col_a_m1	3	9.53506e-06	0.00831457	0.00415729	7	AGAGAGA	GAGAGAGAGAGAGAGAGAGAGAGA	+
AGAGAGM	BBRBPC_tnt.BPC5_col_a_m1	0	1.27134e-05	0.0110861	0.00443443	7	AGAGAGA	AGAGAGAGAGAGAGAGAGAGAGAGAGAGAG	+
AGAGAGM	BBRBPC_tnt.BPC5_colamp_a_m1	21	3.16188e-05	0.0275716	0.00919054	7	AGAGAGA	GAGAGAGAGAGAGAGAGAGAGAGAGAGAG	+
CACRTS	bZIP_tnt.AREB3_col_v31_m1	3	0.000357208	0.311485	0.0963259	6	CACATG	TGCCACGTGTCCATT	-
CACRTS	bZIP_tnt.AREB3_colamp_a_m1	3	0.000357208	0.311485	0.0963259	6	CACATG	TGCCACGTGTCCATT	-
CACRTS	bZIP_tnt.GBF3_colamp_m1	3	0.000357208	0.311485	0.0963259	6	CACATG	TGCCACGTGACCATT	-
CACRTS	bHLH_tnt.bHLH74_colamp_a_m1	0	0.000454038	0.395921	0.0963259	6	CACATG	CACGTGAC	+
CACRTS	bZIP_tnt.ABF2_col_v3a_m1	8	0.000464345	0.404909	0.0963259	6	CACATG	AAAAATGCCACGTGACCA	+
CACRTS	bZIP_tnt.ABI5_col_v3h_m1	5	0.000464345	0.404909	0.0963259	6	CACATG	ACTGCCACGTCACCATTT	-
CACRTS	bZIP_tnt.ABI5_colamp_v3b_m1	3	0.00048888	0.426303	0.0963259	6	CACATG	TGCCACGTCACCATT	-
CACRTS	bZIP_tnt.bZIP16_col_v3a_m1	3	0.00048888	0.426303	0.0963259	6	CACATG	TGCCACGTGACCATT	-
CACRTS	bZIP_tnt.bZIP68_col_a_m1	3	0.000654178	0.570444	0.0963259	6	CACATG	TGCCACGTCAGCATC	+
CACRTS	bZIP_tnt.bZIP16_colamp_a_m1	3	0.00104233	0.908913	0.0963259	6	CACATG	TGCCACGTCAGCATT	-
AAARAGR	C2H2_tnt.SGR5_colamp_a_m1	3	0.000202697	0.176752	0.161151	7	AAAAAGA	AAAAAAAAGACAAAA	-
AAARAGR	C2C2dof_tnt.AT1G69570_colamp_a_m1	7	0.00043685	0.380933	0.161151	7	AAAAAGA	AAAAAAAAAAAAGAAAAAGTG	+
AAARAGR	C2H2_tnt.AtIDD11_col_a_m1	2	0.00043685	0.380933	0.161151	7	AAAAAGA	AGAAAAAGACAAAAAAAAAAA	-
AAARAGR	C2C2dof_tnt.AT1G47655_colamp_a_m1	2	0.000477543	0.416417	0.161151	7	AAAAAGA	AAAAAAAGAAAAAAA	-
AAARAGR	C2H2_tnt.SGR5_col_a_m1	2	0.000561907	0.489983	0.161151	7	AAAAAGA	AAAAAAAGACAAAAA	+
AAARAGR	C2C2dof_tnt.Adof1_col_a_m1	0	0.00066562	0.58042	0.161151	7	AAAAAGA	AAAAAGAAAAAGTAAAAAAAA	+
AAARAGR	G2like_tnt.AT4G37180_col_a_m1	0	0.000756034	0.659262	0.161151	7	AAAAAGA	AAAAAGATTCC	+
AAARAGR	C2C2dof_tnt.At5g62940_col_a_m1	3	0.000795778	0.693918	0.161151	7	AAAAAGA	AAAAAAAAGAAAAAGTAAAAA	+
AAARAGR	C2C2dof_tnt.CDF3_colamp_a_m1	2	0.00087075	0.759294	0.161151	7	AAAAAGA	AAAAAAAGAAAAAGTGAA	-
AAARAGR	C2C2dof_tnt.COG1_col_a_m1	3	0.00108832	0.949014	0.168671	7	AAAAAGA	AAAAAAAAGAAAAAGTGAAAA	+
AAARAGR	C2C2dof_tnt.AT1G69570_col_a_m1	9	0.00111391	0.971331	0.168671	7	AAAAAGA	AAAAAAAAAAAAAAGAAAAAGTGAAAA	-
ASMAAA	C3H_tnt.AT3G12130_colamp_a_m1	2	6.64266e-05	0.057924	0.0311856	6	ACAAAA	AAACAAAAAGTTAA	+
ASMAAA	C2C2dof_tnt.Adof1_colamp_a_m1	5	7.93303e-05	0.069176	0.0311856	6	ACAAAA	AAAAAAGAAAAAGTAAAAAAA	+
ASMAAA	C2H2_tnt.IDD4_col_a_m1	1	8.85678e-05	0.0772311	0.0311856	6	ACAAAA	CACAAAACGACAAAAAA	+
ASMAAA	C2H2_tnt.IDD5_colamp_a_m1	1	8.85678e-05	0.0772311	0.0311856	6	ACAAAA	CACAAAACGACAAAAAA	-
ASMAAA	C2H2_tnt.IDD7_col_a_m1	1	0.000141292	0.123207	0.0311856	6	ACAAAA	CACAAAACGACAAAAAAA	+
ASMAAA	C2H2_tnt.AtIDD11_colamp_a_m1	1	0.000141292	0.123207	0.0311856	6	ACAAAA	CACAAAACGACAAAAAAA	-
ASMAAA	C2C2dof_tnt.AT2G28810_colamp_a_m1	3	0.000156477	0.136448	0.0311856	6	ACAAAA	AAAACAAAAAGTAAA	-
ASMAAA	C2H2_tnt.At1g14580_col_a_m1	1	0.000163028	0.14216	0.0311856	6	ACAAAA	CACAAAACGACAAAAAAAAA	-
ASMAAA	C2H2_tnt.JKD_col_a_m1	1	0.000163028	0.14216	0.0311856	6	ACAAAA	CAGAAAACGACAAAAAAAAA	-
ASMAAA	C2H2_tnt.At5g66730_col_m1	1	0.000271051	0.236357	0.0405836	6	ACAAAA	AAGAAAACGACAAAAAA	+
ASMAAA	C2H2_tnt.NUC_colamp_a_m1	1	0.000271051	0.236357	0.0405836	6	ACAAAA	CACAAAACGACAAAAAA	-
ASMAAA	C2C2dof_tnt.OBP4_colamp_a_m1	5	0.000316219	0.275743	0.0405836	6	ACAAAA	AAAAAACAAAAAGTAAAAA	+
ASMAAA	C2H2_tnt.MGP_col_a_m1	1	0.000338802	0.295436	0.0405836	6	ACAAAA	CAGAAAACGACAAAAAAAAA	+
ASMAAA	C2C2dof_tnt.dof24_colamp_a_m1	4	0.000380817	0.332073	0.0405836	6	ACAAAA	AAAAACAAAAAGTAA	+
ASMAAA	C2H2_tnt.SGR5_col_a_m1	8	0.000380817	0.332073	0.0405836	6	ACAAAA	AAAAAAAGACAAAAA	+
ASMAAA	C2H2_tnt.SGR5_colamp_a_m1	9	0.000380817	0.332073	0.0405836	6	ACAAAA	AAAAAAAAGACAAAA	-
ASMAAA	C2H2_tnt.IDD5_col_m1	1	0.000418891	0.365273	0.0405836	6	ACAAAA	CACAAAACGACAAAAA	-
ASMAAA	C2H2_tnt.At1g14580_colamp_a_m1	1	0.000456963	0.398472	0.0405836	6	ACAAAA	CACAAAACGACAAAAAA	+
ASMAAA	C2H2_tnt.At5g66730_colamp_a_m1	9	0.000456963	0.398472	0.0405836	6	ACAAAA	CAGAAAACGACAAAAAA	-
ASMAAA	C2H2_tnt.IDD2_colamp_a_m1	9	0.000495034	0.43167	0.0405836	6	ACAAAA	AAGAAAACGACAAAAAAA	-
ASMAAA	C2H2_tnt.MGP_colamp_a_m1	1	0.000495034	0.43167	0.0405836	6	ACAAAA	CAGAAAACGACAAAAAAA	-
ASMAAA	C2H2_tnt.IDD2_col_a_m1	9	0.000567962	0.495263	0.0427536	6	ACAAAA	CACAAAACGACAAAA	+
ASMAAA	C2H2_tnt.NUC_col_a_m1	1	0.000571171	0.498061	0.0427536	6	ACAAAA	CACAAAACGACAAAAAAAAA	-
ASMAAA	C2H2_tnt.AtIDD11_col_a_m1	8	0.000609238	0.531255	0.0437029	6	ACAAAA	AGAAAAAGACAAAAAAAAAAA	-
ASMAAA	ARF_ecoli.MP_col_m1	4	0.000807427	0.704077	0.0556029	6	ACAAAA	GCCGACAAAA	+
CMTCGRGA	AP2EREBP_tnt.PLT3_col_a_m1	0	3.01488e-05	0.0262897	0.0525795	8	CCTCGAGA	CCTCGGGATTCGTGC	+
CMTCGRGA	AP2EREBP_tnt.PLT1_col_a_m1	3	0.000263821	0.230052	0.230052	8	CCTCGAGA	TTTCCTCGGGATCCGTGCC	-
CMTCGRGA	AP2EREBP_tnt.AIL7_colamp_a_m1	-1	0.00108811	0.948832	0.525253	7	CCTCGAGA	CTCGGGATTCGT	-
CCRTTGGA	C2C2gata_tnt.ZIM_col_a_m1	6	7.16215e-05	0.062454	0.124908	8	CCGTTGGA	TCTCAACCGTTGGAT	+
CCRTTGGA	C2C2gata_tnt.ZML1_colamp_a_m1	11	0.000778324	0.678698	0.678698	8	CCGTTGGA	ATAAATCTCAACCGTTGGATT	+
CCACTTBC	bHLH_tnt.bHLH130_col_a_m1	2	0.000415421	0.362247	0.280829	8	CCACTTTC	AGCAACTTGCA	+
CCACTTBC	bHLH_tnt.bHLH122_colamp_a_m1	2	0.000464311	0.404879	0.280829	8	CCACTTTC	TGCAACTTGCA	+
CCACTTBC	bHLH_tnt.bHLH80_colamp_a_m1	2	0.000579568	0.505383	0.280829	8	CCACTTTC	TGCAACTTGCA	+
CCACTTBC	bHLH_tnt.bHLH80_col_a_m1	2	0.000645639	0.562997	0.280829	8	CCACTTTC	TGCAACTTGCA	-
CCACTTBC	bHLH_tnt.bHLH122_col100_a_m1	4	0.000805128	0.702072	0.280829	8	CCACTTTC	TTAGCAACTTGCAT	+
AGAAGARG	NAC_tnt.SND2_col_a_m1	7	0.000290359	0.253193	0.278553	8	AGAAGAAG	AGCGTGAAGAAGAAG	-
AGAAGARG	NAC_tnt.ANAC004_col_a_m1	6	0.0003306	0.288283	0.278553	8	AGAAGAAG	ACTTGTAGAAGAAG	-
AGAAGARG	NAC_tnt.ANAC075_col_a_m1	7	0.000485506	0.423361	0.278553	8	AGAAGAAG	AGCGTGAAGAAGAAG	+
AGAAGARG	NAC_tnt.ANAC071_col_a_m1	7	0.000946482	0.825332	0.291848	8	AGAAGAAG	TACTTGAAGATGAAG	+
AGAAGARG	NAC_tnt.SND2_colamp_a_m1	7	0.00104316	0.909639	0.291848	8	AGAAGAAG	AGCGTGATGAAGAAG	+

# Tomtom (Motif Comparison Tool): Version 5.0.5 compiled on Aug 23 2019 at 17:35:21
# The format of this file is described at http://meme-suite.org//doc/tomtom-output-format.html.
# tomtom -verbosity 1 -oc memechip_out/dreme_tomtom_out -min-overlap 5 -dist pearson -evalue -thresh 1 -no-ssc memechip_out/dreme_out/dreme.xml /Users/bethkrizek/ChIPSeq/motif_databasesforMEME/motif_databases/ARABD/ArabidopsisDAPv1.meme
