********************************************************************************
MEME - Motif discovery tool
********************************************************************************
MEME version 5.0.5 (Release date: Mon Mar 18 20:12:19 2019 -0700)

For further information on how to interpret please access http://meme-suite.org/.
To get a copy of the MEME software please access http://meme-suite.org.

********************************************************************************


********************************************************************************
REFERENCE
********************************************************************************
If you use this program in your research, please cite:

Timothy L. Bailey and Charles Elkan,
"Fitting a mixture model by expectation maximization to discover
motifs in biopolymers", Proceedings of the Second International
Conference on Intelligent Systems for Molecular Biology, pp. 28-36,
AAAI Press, Menlo Park, California, 1994.
********************************************************************************


********************************************************************************
TRAINING SET
********************************************************************************
PRIMARY SEQUENCES= memechip_out/seqs-centered
CONTROL SEQUENCES= --none--
ALPHABET= ACGT

********************************************************************************

********************************************************************************
COMMAND LINE SUMMARY
********************************************************************************
This information can also be useful in the event you wish to report a
problem with the MEME software.

command: meme memechip_out/seqs-centered -oc memechip_out/meme_out -mod zoops -nmotifs 5 -minw 6 -maxw 30 -bfile memechip_out/background -dna -revcomp -nostatus 

model:  mod=         zoops    nmotifs=         5    evt=           inf
objective function:           em=       E-value of product of p-values
                              starts=   E-value of product of p-values
strands: + -
width:  minw=            6    maxw=           30
nsites: minsites=        2    maxsites=     2631    wnsites=       0.8
theta:  spmap=         uni    spfuzz=        0.5
em:     prior=   dirichlet    b=            0.01    maxiter=        50
        distance=    1e-05
trim:   wg=             11    ws=              1    endgaps=       yes
data:   n=          256675    N=            2631
sample: seed=            0    hsfrac=          0
        searchsize= 100000    norand=         no    csites=       1000
Letter frequencies in dataset:
A 0.316 C 0.184 G 0.184 T 0.316 
Background letter frequencies (from file memechip_out/background):
A 0.328 C 0.172 G 0.172 T 0.328 
Background model order: 1
********************************************************************************


********************************************************************************
MOTIF YYTYTYTYTYTYTYTYTYYYY MEME-1	width =  21  sites = 689  llr = 6430  E-value = 5.7e-194
********************************************************************************
--------------------------------------------------------------------------------
	Motif YYTYTYTYTYTYTYTYTYYYY MEME-1 Description
--------------------------------------------------------------------------------
Simplified        A  1221:1:1:::1:11:11121
pos.-specific     C  542524261625:52423333
probability       G  11:1:2:::::::1:1:12::
matrix            T  347483839484a37565555

         bits    2.5                      
                 2.3                      
                 2.0                      
                 1.8                      
Relative         1.5                      
Entropy          1.3          *  *        
(13.5 bits)      1.0       * *** *        
                 0.8     * ***** ** *     
                 0.5 * *** ***********   *
                 0.3 *********************
                 0.0 ---------------------

Multilevel           CCTCTCTCTCTCTCTTTTTTT
consensus            TT T T T T T T CCCCCC
sequence                                  
                                          
--------------------------------------------------------------------------------

--------------------------------------------------------------------------------
	Motif YYTYTYTYTYTYTYTYTYYYY MEME-1 position-specific scoring matrix
--------------------------------------------------------------------------------
log-odds matrix: alength= 4 w= 21 n= 204055 bayes= 10.403 E= 5.7e-194 
  -182    146    -32    -14 
  -105    129   -176     18 
   -99     -8  -1607    103 
  -180    143    -93     11 
  -450    -16   -224    128 
  -165    130    -12     -6 
  -357      4   -688    127 
  -201    175   -688      6 
  -365   -168   -180    141 
 -1607    172  -1607     40 
 -1607     -2   -319    131 
  -204    156   -198     17 
 -1607   -589   -213    155 
  -230    166   -172      5 
  -119     15  -1607    102 
 -1607    119   -113     69 
  -146     53   -430     93 
  -163     79    -36     50 
  -148     61    -17     51 
   -87    103   -330     46 
  -122     86   -430     71 
--------------------------------------------------------------------------------

--------------------------------------------------------------------------------
	Motif YYTYTYTYTYTYTYTYTYYYY MEME-1 position-specific probability matrix
--------------------------------------------------------------------------------
letter-probability matrix: alength= 4 w= 21 nsites= 689 E= 5.7e-194 
 0.092888  0.471698  0.137881  0.297533 
 0.158200  0.419448  0.050798  0.371553 
 0.165457  0.162554  0.000000  0.671988 
 0.094340  0.461538  0.089985  0.354136 
 0.014514  0.153846  0.036284  0.795356 
 0.104499  0.422351  0.158200  0.314949 
 0.027576  0.177068  0.001451  0.793904 
 0.081277  0.576197  0.001451  0.341074 
 0.026125  0.053701  0.049347  0.870827 
 0.000000  0.566038  0.000000  0.433962 
 0.000000  0.169811  0.018868  0.811321 
 0.079826  0.507983  0.043541  0.368650 
 0.000000  0.002903  0.039187  0.957910 
 0.066763  0.541364  0.052250  0.339623 
 0.143687  0.190131  0.000000  0.666183 
 0.000000  0.391872  0.078374  0.529753 
 0.119013  0.248186  0.008708  0.624093 
 0.105951  0.296081  0.133527  0.464441 
 0.117562  0.262700  0.152395  0.467344 
 0.179971  0.349782  0.017417  0.452830 
 0.140784  0.312046  0.008708  0.538462 
--------------------------------------------------------------------------------

--------------------------------------------------------------------------------
	Motif YYTYTYTYTYTYTYTYTYYYY MEME-1 regular expression
--------------------------------------------------------------------------------
[CT][CT]T[CT]T[CT]T[CT]T[CT]T[CT]T[CT]T[TC][TC][TC][TC][TC][TC]
--------------------------------------------------------------------------------




Time 510.21 secs.

********************************************************************************


********************************************************************************
MOTIF NNNNKCMTYGRDWHYYGTG MEME-2	width =  19  sites = 355  llr = 3235  E-value = 8.0e-045
********************************************************************************
--------------------------------------------------------------------------------
	Motif NNNNKCMTYGRDWHYYGTG MEME-2 Description
--------------------------------------------------------------------------------
Simplified        A  43221:3:::535221:21
pos.-specific     C  2233175:6:::1236:2:
probability       G  22224:1::a44112:919
matrix            T  2233321a3:133443:6:

         bits    2.5                    
                 2.3          *         
                 2.0          *      * *
                 1.8          *      * *
Relative         1.5          *      * *
Entropy          1.3      * * *      * *
(13.1 bits)      1.0      * ***      * *
                 0.8      * ***     ** *
                 0.5      * *****   ** *
                 0.3     ********   ****
                 0.0 -------------------

Multilevel           AACTGCCTCGAGATTCGTG
consensus            CTTCTTA T GTTACT C 
sequence             GCAA       A C     
                     TGG                
--------------------------------------------------------------------------------

--------------------------------------------------------------------------------
	Motif NNNNKCMTYGRDWHYYGTG MEME-2 position-specific scoring matrix
--------------------------------------------------------------------------------
log-odds matrix: alength= 4 w= 19 n= 209317 bayes= 11.2859 E= 8.0e-045 
    18     32     30    -69 
    -6     46     26    -44 
   -62     80     30    -25 
   -54     71     16    -12 
  -128    -68    131      2 
  -369    210  -1512    -47 
   -39    147    -41   -119 
  -406   -393  -1512    156 
  -328    182   -312      4 
  -386  -1512    248   -406 
    50   -593    117   -116 
   -28  -1512    138    -22 
    55    -50    -32    -33 
   -56     37    -50     40 
  -108     59      2     33 
  -222    172   -202     -3 
  -296   -293    244  -1512 
  -103     22   -107     77 
  -247   -293    242  -1512 
--------------------------------------------------------------------------------

--------------------------------------------------------------------------------
	Motif NNNNKCMTYGRDWHYYGTG MEME-2 position-specific probability matrix
--------------------------------------------------------------------------------
letter-probability matrix: alength= 4 w= 19 nsites= 355 E= 8.0e-045 
 0.371831  0.214085  0.211268  0.202817 
 0.315493  0.236620  0.205634  0.242254 
 0.214085  0.298592  0.211268  0.276056 
 0.225352  0.281690  0.191549  0.301408 
 0.135211  0.107042  0.425352  0.332394 
 0.025352  0.738028  0.000000  0.236620 
 0.250704  0.476056  0.129577  0.143662 
 0.019718  0.011268  0.000000  0.969014 
 0.033803  0.608451  0.019718  0.338028 
 0.022535  0.000000  0.957746  0.019718 
 0.464789  0.002817  0.385915  0.146479 
 0.270423  0.000000  0.447887  0.281690 
 0.478873  0.121127  0.138028  0.261972 
 0.222535  0.222535  0.121127  0.433803 
 0.154930  0.259155  0.174648  0.411268 
 0.070423  0.566197  0.042254  0.321127 
 0.042254  0.022535  0.935211  0.000000 
 0.160563  0.200000  0.081690  0.557746 
 0.059155  0.022535  0.918310  0.000000 
--------------------------------------------------------------------------------

--------------------------------------------------------------------------------
	Motif NNNNKCMTYGRDWHYYGTG MEME-2 regular expression
--------------------------------------------------------------------------------
[ACGT][ATCG][CTAG][TCA][GT][CT][CA]T[CT]G[AG][GTA][AT][TAC][TC][CT]G[TC]G
--------------------------------------------------------------------------------




Time 912.62 secs.

********************************************************************************


********************************************************************************
MOTIF MAAAAAAAAAMAAAA MEME-3	width =  15  sites = 183  llr = 1833  E-value = 7.2e-021
********************************************************************************
--------------------------------------------------------------------------------
	Motif MAAAAAAAAAMAAAA MEME-3 Description
--------------------------------------------------------------------------------
Simplified        A  595986887949998
pos.-specific     C  5:211222:1511:1
probability       G  :12:121:3:2:::1
matrix            T  ::1::::1:::::::

         bits    2.5                
                 2.3                
                 2.0                
                 1.8                
Relative         1.5                
Entropy          1.3  *         *** 
(14.5 bits)      1.0 ** *    ** ****
                 0.8 ** ** *********
                 0.5 ** ************
                 0.3 ***************
                 0.0 ---------------

Multilevel           AAAAAAAAAACAAAA
consensus            C G  C  G A    
sequence               C            
                                    
--------------------------------------------------------------------------------

--------------------------------------------------------------------------------
	Motif MAAAAAAAAAMAAAA MEME-3 position-specific scoring matrix
--------------------------------------------------------------------------------
log-odds matrix: alength= 4 w= 15 n= 219841 bayes= 11.7869 E= 7.2e-021 
    72    140   -497  -1416 
   149  -1416   -117  -1416 
    63     27     31   -221 
   138    -22  -1416  -1416 
   122    -97    -22  -1416 
    85     42      7  -1416 
   122     -7   -127  -1416 
   124    -12  -1416   -232 
   117  -1416     61  -1416 
   138    -22  -1416  -1416 
    14    145     -2  -1416 
   150   -127  -1416  -1416 
   146    -80  -1416  -1416 
   153   -497   -180  -1416 
   133   -127    -73  -1416 
--------------------------------------------------------------------------------

--------------------------------------------------------------------------------
	Motif MAAAAAAAAAMAAAA MEME-3 position-specific probability matrix
--------------------------------------------------------------------------------
letter-probability matrix: alength= 4 w= 15 nsites= 183 E= 7.2e-021 
 0.540984  0.453552  0.005464  0.000000 
 0.923497  0.000000  0.076503  0.000000 
 0.508197  0.207650  0.213115  0.071038 
 0.852459  0.147541  0.000000  0.000000 
 0.765027  0.087432  0.147541  0.000000 
 0.590164  0.229508  0.180328  0.000000 
 0.765027  0.163934  0.071038  0.000000 
 0.775956  0.158470  0.000000  0.065574 
 0.737705  0.000000  0.262295  0.000000 
 0.852459  0.147541  0.000000  0.000000 
 0.360656  0.469945  0.169399  0.000000 
 0.928962  0.071038  0.000000  0.000000 
 0.901639  0.098361  0.000000  0.000000 
 0.945355  0.005464  0.049180  0.000000 
 0.825137  0.071038  0.103825  0.000000 
--------------------------------------------------------------------------------

--------------------------------------------------------------------------------
	Motif MAAAAAAAAAMAAAA MEME-3 regular expression
--------------------------------------------------------------------------------
[AC]A[AGC]AA[AC]AA[AG]A[CA]AAAA
--------------------------------------------------------------------------------




Time 1275.37 secs.

********************************************************************************


********************************************************************************
MOTIF YGYRHRTGHCACGTG MEME-4	width =  15  sites =  88  llr = 983  E-value = 1.5e-011
********************************************************************************
--------------------------------------------------------------------------------
	Motif YGYRHRTGHCACGTG MEME-4 Description
--------------------------------------------------------------------------------
Simplified        A  1115343:3:a::::
pos.-specific     C  313:211348:8:2:
probability       G  182514:712::a:a
matrix            T  5:41416:3::2:8:

         bits    2.5             * *
                 2.3             * *
                 2.0             * *
                 1.8          * ** *
Relative         1.5        * * ** *
Entropy          1.3  *     * **** *
(16.1 bits)      1.0  *     * ******
                 0.8  * *   * ******
                 0.5  * *  ** ******
                 0.3 **** **********
                 0.0 ---------------

Multilevel           TGTATATGCCACGTG
consensus            C CGAGACA      
sequence                 C   T      
                                    
--------------------------------------------------------------------------------

--------------------------------------------------------------------------------
	Motif YGYRHRTGHCACGTG MEME-4 position-specific scoring matrix
--------------------------------------------------------------------------------
log-odds matrix: alength= 4 w= 15 n= 219841 bayes= 12.8199 E= 1.5e-011 
  -185     94   -133     64 
  -115   -133    217   -485 
  -115     61      8     32 
    51  -1310    144   -227 
   -21     47    -46     10 
    19    -33    113   -153 
   -33    -22  -1310     85 
 -1310     84    201  -1310 
   -39    129   -111    -39 
 -1310    223     17  -1310 
   154  -1310   -192  -1310 
 -1310    223  -1310    -76 
 -1310  -1310    254  -1310 
  -485    -11  -1310    134 
 -1310   -392    252  -1310 
--------------------------------------------------------------------------------

--------------------------------------------------------------------------------
	Motif YGYRHRTGHCACGTG MEME-4 position-specific probability matrix
--------------------------------------------------------------------------------
letter-probability matrix: alength= 4 w= 15 nsites= 88 E= 1.5e-011 
 0.090909  0.329545  0.068182  0.511364 
 0.147727  0.068182  0.772727  0.011364 
 0.147727  0.261364  0.181818  0.409091 
 0.465909  0.000000  0.465909  0.068182 
 0.284091  0.238636  0.125000  0.352273 
 0.375000  0.136364  0.375000  0.113636 
 0.261364  0.147727  0.000000  0.590909 
 0.000000  0.306818  0.693182  0.000000 
 0.250000  0.420455  0.079545  0.250000 
 0.000000  0.806818  0.193182  0.000000 
 0.954545  0.000000  0.045455  0.000000 
 0.000000  0.806818  0.000000  0.193182 
 0.000000  0.000000  1.000000  0.000000 
 0.011364  0.159091  0.000000  0.829545 
 0.000000  0.011364  0.988636  0.000000 
--------------------------------------------------------------------------------

--------------------------------------------------------------------------------
	Motif YGYRHRTGHCACGTG MEME-4 regular expression
--------------------------------------------------------------------------------
[TC]G[TC][AG][TAC][AG][TA][GC][CAT]CACGTG
--------------------------------------------------------------------------------




Time 1652.73 secs.

********************************************************************************


********************************************************************************
MOTIF BCCCCACMHTYMCCA MEME-5	width =  15  sites =  34  llr = 419  E-value = 4.2e-001
********************************************************************************
--------------------------------------------------------------------------------
	Motif BCCCCACMHTYMCCA MEME-5 Description
--------------------------------------------------------------------------------
Simplified        A  ::1:26:53:231:9
pos.-specific     C  389871a4433699:
probability       G  31:::::11:::::1
matrix            T  31:2:2:13751111

         bits    2.5       *        
                 2.3   *   *      * 
                 2.0   *   *      * 
                 1.8   *   *     ** 
Relative         1.5  ***  *     ** 
Entropy          1.3  **** *     ** 
(17.8 bits)      1.0  **** *  *  ***
                 0.8  **** *  * ****
                 0.5 *******  ******
                 0.3 ***************
                 0.0 ---------------

Multilevel           CCCCCACACTTCCCA
consensus            G  TAT CACCA   
sequence             T       T A    
                                    
--------------------------------------------------------------------------------

--------------------------------------------------------------------------------
	Motif BCCCCACMHTYMCCA MEME-5 position-specific scoring matrix
--------------------------------------------------------------------------------
log-odds matrix: alength= 4 w= 15 n= 219841 bayes= 14.0235 E= 4.2e-001 
  -348     91     91     -2 
 -1173    221    -96   -148 
  -248    245  -1173  -1173 
 -1173    215  -1173    -48 
   -48    210  -1173   -348 
    98    -55  -1173    -48 
 -1173    254  -1173  -1173 
    52    104   -155   -148 
   -16    104   -155    -16 
 -1173     91  -1173    104 
   -67     91  -1173     52 
    -2    178  -1173   -189 
  -248    236  -1173   -248 
 -1173    245  -1173   -248 
   143  -1173   -155   -248 
--------------------------------------------------------------------------------

--------------------------------------------------------------------------------
	Motif BCCCCACMHTYMCCA MEME-5 position-specific probability matrix
--------------------------------------------------------------------------------
letter-probability matrix: alength= 4 w= 15 nsites= 34 E= 4.2e-001 
 0.029412  0.323529  0.323529  0.323529 
 0.000000  0.794118  0.088235  0.117647 
 0.058824  0.941176  0.000000  0.000000 
 0.000000  0.764706  0.000000  0.235294 
 0.235294  0.735294  0.000000  0.029412 
 0.647059  0.117647  0.000000  0.235294 
 0.000000  1.000000  0.000000  0.000000 
 0.470588  0.352941  0.058824  0.117647 
 0.294118  0.352941  0.058824  0.294118 
 0.000000  0.323529  0.000000  0.676471 
 0.205882  0.323529  0.000000  0.470588 
 0.323529  0.588235  0.000000  0.088235 
 0.058824  0.882353  0.000000  0.058824 
 0.000000  0.941176  0.000000  0.058824 
 0.882353  0.000000  0.058824  0.058824 
--------------------------------------------------------------------------------

--------------------------------------------------------------------------------
	Motif BCCCCACMHTYMCCA MEME-5 regular expression
--------------------------------------------------------------------------------
[CGT]CC[CT][CA][AT]C[AC][CAT][TC][TCA][CA]CCA
--------------------------------------------------------------------------------




Time 2050.40 secs.

********************************************************************************

********************************************************************************
Stopped because requested number of motifs (5) found.
********************************************************************************

CPU: COBIOL716b18e.local

********************************************************************************
