DistanceAB   DistanceAC   DistanceAD   DistanceAE   PositionA    PositionB    PositionC    PositionD    PositionE  Chromosome
         2       104831       151579       489155       76167        76165       180998       227746       565322           1
         2        46746       104835       384322      181000       180998       227746        76165       565322           1
         2        46746       151579       337578      227744       227746       180998        76165       565322           1
         2       337578       363557       363998      565324       565322       227746       928881       929322           1
         2          439          641       363561      928883       928881       929322       929524       565322           1
         2          200          443       364002      929324       929322       929524       928881       565322           1
    232762       306846       307048       307489     1236370      1469132       929524       929322       928881           1
         2       270260       370458       376230     1469134      1469132      1739394      1839592      1845364           1
         2       100200       105972       111204     1739392      1739394      1839592      1845364      1850596           1
         2         5774        11006       100196     1839590      1839592      1845364      1850596      1739394           1
         2         5234        11006       111204     1850598      1850596      1845364      1839592      1739394           1
      5366       497544       502776       508548     2348140      2353506      1850596      1845364      1839592           1
         2       502908       508140       513912     2353504      2353506      1850596      1845364      1839592           1
         2       229464       712837       944291     4059965      4059967      4289429      4772802      5004256           1
         2       229460       483375       714829     4289427      4289429      4059967      4772802      5004256           1
         2       231452       376364       483375     4772804      4772802      5004256      5149168      4289429           1
         2       144914       231452       321188     5004254      5004256      5149168      4772802      5325442           1
     66633        78279       242907       309733     5082535      5149168      5004256      5325442      4772802           1
         2       144910       176276       364803     5149166      5149168      5004256      5325442      5513969           1
         2       176276       188525       321188     5325444      5325442      5149168      5513969      5004256           1
         2       188525       364799       509711     5513967      5513969      5325442      5149168      5004256           1
         2       242113       874988      1000958     7142524      7142522      7384637      6267536      8143482           1
         2       150714       263536       744087     9191544      9191546      9342258      9455080      9935631           1
         2       112824       150710       593375     9342256      9342258      9455080      9191546      9935631           1
         2           58       393355       480609     9935689      9935691      9935631     10329044      9455080           1
     65176        65236       328177       545787    10000867      9935691      9935631     10329044      9455080           1
         2       393355       393415       464164    10329046     10329044      9935691      9935631     10793210           1
         2       240759       464168       833214    10793212     10793210     11033971     10329044     11626426           1
         2       240763       592453       595373    11033973     11033971     10793210     11626426     11629346           1
         2         2918       595373       836134    11629344     11629346     11626426     11033971     10793210           1
         2          499      1442426      2054555    17862144     17862146     17862643     19304570     19916699           1
         2          499      1441925      2054054    17862645     17862643     17862146     19304570     19916699           1
         2       612131       832504      1441925    19304568     19304570     19916699     20137072     17862643           1
         2       220375       612127      1339339    19916697     19916699     20137072     19304570     21256036           1
         2       220371       832500      1118966    20137070     20137072     19916699     19304570     21256036           1
         2      1118966      1339339      1680500    21256038     21256036     20137072     19916699     22936538           1
         2        70618       397664      1004364    23941155     23941153     24011773     23543491     22936791           1
         2        70618       468280      1074980    24011771     24011773     23941153     23543491     22936791           1
         2       340997       394028       494128    25732343     25732341     25391346     26126371     25238215           1
    180370       213660       521365       674496    25912711     25732341     26126371     25391346     25238215           1
         2       394028       534144       536508    26126369     26126371     25732341     26660513     26662877           1
         2        67726        70090        87428    26730603     26730605     26662877     26660513     26818031           1
         2        50999       216613       296457    27034644     27034642     27085643     26818031     27331101           1
         2        51003       245456       267614    27085645     27085643     27034642     27331101     26818031           1
         2       166990       215653       215777    27498091     27498089     27331101     27713744     27713868           1
         2        80105        83123       296967    28377020     28377018     28296915     28460143     28673987           1
         2        83127       163230       213842    28460145     28460143     28377018     28296915     28673987           1
         2       150627       213846       296971    28673989     28673987     28824616     28460143     28377018           1
         2       150627       364471       447596    28824614     28824616     28673987     28460143     28377018           1
         2        38696        38951        50475    29449822     29449824     29488518     29488773     29399347           1
         2        27750        27841        71588    29572734     29572732     29600484     29600575     29644322           1
         2           89        27841        43749    29600573     29600575     29600484     29572732     29644322           1
