Query_ID	Target_ID	Optimal_offset	p-value	E-value	q-value	Overlap	Query_consensus	Target_consensus	Orientation
1	1	0	4.34403e-44	3.90962e-43	7.81925e-43	19	GGCACAAATCCCAATGCGA	GGCACAAATCCCAATGCGA	+
2	2	0	0	0	0	20	CTTCTCTTTCTCTCTCTTTT	CTTCTCTTTCTCTCTCTTTT	+
2	6	-1	4.59559e-05	0.000413603	0.000413603	19	CTTCTCTTTCTCTCTCTTTT	CTTTTTATTTTTTTTTTTTTT	-
2	4	-8	0.00508831	0.0457948	0.0305299	7	CTTCTCTTTCTCTCTCTTTT	TCTCTCT	-
3	3	0	2.42109e-31	2.17898e-30	4.35795e-30	14	CACGTGTCGTTTGC	CACGTGTCGTTTGC	+
3	5	0	7.90579e-06	7.11521e-05	7.11521e-05	6	CACGTGTCGTTTGC	CACGTG	-
3	9	-1	0.000810557	0.00729501	0.00291801	5	CACGTGTCGTTTGC	ATGTG	+
4	4	0	7.78233e-10	7.0041e-09	1.40082e-08	7	AGAGAGA	AGAGAGA	+
4	2	9	0.00690803	0.0621723	0.0621723	7	AGAGAGA	AAAAGAGAGAGAAAGAGAAG	-
5	5	0	5.74763e-09	5.17287e-08	1.03457e-07	6	CACGTG	CACGTG	+
5	3	8	0.000122974	0.00110676	0.000737841	6	CACGTG	GCAAACGACACGTG	-
5	9	-1	0.00631398	0.0568258	0.0189419	5	CACGTG	ATGTG	+
6	6	0	0	0	0	21	AAAAAAAAAAAAAATAAAAAG	AAAAAAAAAAAAAATAAAAAG	+
6	2	-2	5.4324e-05	0.000488916	0.000488916	19	AAAAAAAAAAAAAATAAAAAG	AAAAGAGAGAGAAAGAGAAG	-
7	7	0	9.78522e-09	8.8067e-08	1.76134e-07	5	CCAAA	CCAAA	+
8	8	0	1.45742e-08	1.31168e-07	2.62335e-07	6	CAAAAG	CAAAAG	+
9	9	0	1.46778e-07	1.321e-06	2.64201e-06	5	ATGTG	ATGTG	+
9	3	9	0.0055766	0.0501894	0.02556	5	ATGTG	GCAAACGACACGTG	-
9	5	1	0.00587145	0.0528431	0.02556	5	ATGTG	CACGTG	+

# Tomtom (Motif Comparison Tool): Version 5.0.5 compiled on Aug 23 2019 at 17:35:21
# The format of this file is described at http://meme-suite.org//doc/tomtom-output-format.html.
# tomtom -verbosity 1 -text -thresh 0.1 memechip_out/combined.meme memechip_out/combined.meme
