prim_db	prim_id	prim_alt	prim_cons	sec_db	sec_id	sec_alt	sec_cons	trim_left	trim_right	red_db	red_id	red_alt	E-value	gap	orient	count	total	adj_p-value	p-value

# SpaMo (Spaced Motif Analysis Tool): Version 5.0.5 compiled on Aug 23 2019 at 17:35:19
# The format of this file is described at http://meme-suite.org//doc/spamo-output-format.html.
# spamo -verbosity 1 -oc memechip_out/spamo_out_5 -bgfile memechip_out/background -keepprimary -primary CAAAAS memechip_out/allAIL6chrpeaksseq.fasta memechip_out/dreme_out/dreme.xml memechip_out/meme_out/meme.xml memechip_out/dreme_out/dreme.xml /Users/bethkrizek/ChIPSeq/motif_databasesforMEME/motif_databases/ARABD/ArabidopsisDAPv1.meme
